(kicad_sch (version 20211123) (generator eeschema)

  (uuid 5038e144-5119-49db-b6cf-f7c345f1cf03)

  (paper "A4" portrait)

  (title_block
    (title "ATTNode")
    (date "2019-08-29")
    (rev "1.1")
    (comment 1 "A ATTiny84 + RFM95W Based Lora Sensor Basenode")
  )

  (lib_symbols
    (symbol "Connector:Conn_01x08_Male" (pin_names (offset 1.016) hide) (in_bom yes) (on_board yes)
      (property "Reference" "J" (id 0) (at 0 10.16 0)
        (effects (font (size 1.27 1.27)))
      )
      (property "Value" "Conn_01x08_Male" (id 1) (at 0 -12.7 0)
        (effects (font (size 1.27 1.27)))
      )
      (property "Footprint" "" (id 2) (at 0 0 0)
        (effects (font (size 1.27 1.27)) hide)
      )
      (property "Datasheet" "~" (id 3) (at 0 0 0)
        (effects (font (size 1.27 1.27)) hide)
      )
      (property "ki_keywords" "connector" (id 4) (at 0 0 0)
        (effects (font (size 1.27 1.27)) hide)
      )
      (property "ki_description" "Generic connector, single row, 01x08, script generated (kicad-library-utils/schlib/autogen/connector/)" (id 5) (at 0 0 0)
        (effects (font (size 1.27 1.27)) hide)
      )
      (property "ki_fp_filters" "Connector*:*_1x??_*" (id 6) (at 0 0 0)
        (effects (font (size 1.27 1.27)) hide)
      )
      (symbol "Conn_01x08_Male_1_1"
        (polyline
          (pts
            (xy 1.27 -10.16)
            (xy 0.8636 -10.16)
          )
          (stroke (width 0.1524) (type default) (color 0 0 0 0))
          (fill (type none))
        )
        (polyline
          (pts
            (xy 1.27 -7.62)
            (xy 0.8636 -7.62)
          )
          (stroke (width 0.1524) (type default) (color 0 0 0 0))
          (fill (type none))
        )
        (polyline
          (pts
            (xy 1.27 -5.08)
            (xy 0.8636 -5.08)
          )
          (stroke (width 0.1524) (type default) (color 0 0 0 0))
          (fill (type none))
        )
        (polyline
          (pts
            (xy 1.27 -2.54)
            (xy 0.8636 -2.54)
          )
          (stroke (width 0.1524) (type default) (color 0 0 0 0))
          (fill (type none))
        )
        (polyline
          (pts
            (xy 1.27 0)
            (xy 0.8636 0)
          )
          (stroke (width 0.1524) (type default) (color 0 0 0 0))
          (fill (type none))
        )
        (polyline
          (pts
            (xy 1.27 2.54)
            (xy 0.8636 2.54)
          )
          (stroke (width 0.1524) (type default) (color 0 0 0 0))
          (fill (type none))
        )
        (polyline
          (pts
            (xy 1.27 5.08)
            (xy 0.8636 5.08)
          )
          (stroke (width 0.1524) (type default) (color 0 0 0 0))
          (fill (type none))
        )
        (polyline
          (pts
            (xy 1.27 7.62)
            (xy 0.8636 7.62)
          )
          (stroke (width 0.1524) (type default) (color 0 0 0 0))
          (fill (type none))
        )
        (rectangle (start 0.8636 -10.033) (end 0 -10.287)
          (stroke (width 0.1524) (type default) (color 0 0 0 0))
          (fill (type outline))
        )
        (rectangle (start 0.8636 -7.493) (end 0 -7.747)
          (stroke (width 0.1524) (type default) (color 0 0 0 0))
          (fill (type outline))
        )
        (rectangle (start 0.8636 -4.953) (end 0 -5.207)
          (stroke (width 0.1524) (type default) (color 0 0 0 0))
          (fill (type outline))
        )
        (rectangle (start 0.8636 -2.413) (end 0 -2.667)
          (stroke (width 0.1524) (type default) (color 0 0 0 0))
          (fill (type outline))
        )
        (rectangle (start 0.8636 0.127) (end 0 -0.127)
          (stroke (width 0.1524) (type default) (color 0 0 0 0))
          (fill (type outline))
        )
        (rectangle (start 0.8636 2.667) (end 0 2.413)
          (stroke (width 0.1524) (type default) (color 0 0 0 0))
          (fill (type outline))
        )
        (rectangle (start 0.8636 5.207) (end 0 4.953)
          (stroke (width 0.1524) (type default) (color 0 0 0 0))
          (fill (type outline))
        )
        (rectangle (start 0.8636 7.747) (end 0 7.493)
          (stroke (width 0.1524) (type default) (color 0 0 0 0))
          (fill (type outline))
        )
        (pin passive line (at 5.08 7.62 180) (length 3.81)
          (name "Pin_1" (effects (font (size 1.27 1.27))))
          (number "1" (effects (font (size 1.27 1.27))))
        )
        (pin passive line (at 5.08 5.08 180) (length 3.81)
          (name "Pin_2" (effects (font (size 1.27 1.27))))
          (number "2" (effects (font (size 1.27 1.27))))
        )
        (pin passive line (at 5.08 2.54 180) (length 3.81)
          (name "Pin_3" (effects (font (size 1.27 1.27))))
          (number "3" (effects (font (size 1.27 1.27))))
        )
        (pin passive line (at 5.08 0 180) (length 3.81)
          (name "Pin_4" (effects (font (size 1.27 1.27))))
          (number "4" (effects (font (size 1.27 1.27))))
        )
        (pin passive line (at 5.08 -2.54 180) (length 3.81)
          (name "Pin_5" (effects (font (size 1.27 1.27))))
          (number "5" (effects (font (size 1.27 1.27))))
        )
        (pin passive line (at 5.08 -5.08 180) (length 3.81)
          (name "Pin_6" (effects (font (size 1.27 1.27))))
          (number "6" (effects (font (size 1.27 1.27))))
        )
        (pin passive line (at 5.08 -7.62 180) (length 3.81)
          (name "Pin_7" (effects (font (size 1.27 1.27))))
          (number "7" (effects (font (size 1.27 1.27))))
        )
        (pin passive line (at 5.08 -10.16 180) (length 3.81)
          (name "Pin_8" (effects (font (size 1.27 1.27))))
          (number "8" (effects (font (size 1.27 1.27))))
        )
      )
    )
    (symbol "Connector_Generic:Conn_02x03_Odd_Even" (pin_names (offset 1.016) hide) (in_bom yes) (on_board yes)
      (property "Reference" "J" (id 0) (at 1.27 5.08 0)
        (effects (font (size 1.27 1.27)))
      )
      (property "Value" "Conn_02x03_Odd_Even" (id 1) (at 1.27 -5.08 0)
        (effects (font (size 1.27 1.27)))
      )
      (property "Footprint" "" (id 2) (at 0 0 0)
        (effects (font (size 1.27 1.27)) hide)
      )
      (property "Datasheet" "~" (id 3) (at 0 0 0)
        (effects (font (size 1.27 1.27)) hide)
      )
      (property "ki_keywords" "connector" (id 4) (at 0 0 0)
        (effects (font (size 1.27 1.27)) hide)
      )
      (property "ki_description" "Generic connector, double row, 02x03, odd/even pin numbering scheme (row 1 odd numbers, row 2 even numbers), script generated (kicad-library-utils/schlib/autogen/connector/)" (id 5) (at 0 0 0)
        (effects (font (size 1.27 1.27)) hide)
      )
      (property "ki_fp_filters" "Connector*:*_2x??_*" (id 6) (at 0 0 0)
        (effects (font (size 1.27 1.27)) hide)
      )
      (symbol "Conn_02x03_Odd_Even_1_1"
        (rectangle (start -1.27 -2.413) (end 0 -2.667)
          (stroke (width 0.1524) (type default) (color 0 0 0 0))
          (fill (type none))
        )
        (rectangle (start -1.27 0.127) (end 0 -0.127)
          (stroke (width 0.1524) (type default) (color 0 0 0 0))
          (fill (type none))
        )
        (rectangle (start -1.27 2.667) (end 0 2.413)
          (stroke (width 0.1524) (type default) (color 0 0 0 0))
          (fill (type none))
        )
        (rectangle (start -1.27 3.81) (end 3.81 -3.81)
          (stroke (width 0.254) (type default) (color 0 0 0 0))
          (fill (type background))
        )
        (rectangle (start 3.81 -2.413) (end 2.54 -2.667)
          (stroke (width 0.1524) (type default) (color 0 0 0 0))
          (fill (type none))
        )
        (rectangle (start 3.81 0.127) (end 2.54 -0.127)
          (stroke (width 0.1524) (type default) (color 0 0 0 0))
          (fill (type none))
        )
        (rectangle (start 3.81 2.667) (end 2.54 2.413)
          (stroke (width 0.1524) (type default) (color 0 0 0 0))
          (fill (type none))
        )
        (pin passive line (at -5.08 2.54 0) (length 3.81)
          (name "Pin_1" (effects (font (size 1.27 1.27))))
          (number "1" (effects (font (size 1.27 1.27))))
        )
        (pin passive line (at 7.62 2.54 180) (length 3.81)
          (name "Pin_2" (effects (font (size 1.27 1.27))))
          (number "2" (effects (font (size 1.27 1.27))))
        )
        (pin passive line (at -5.08 0 0) (length 3.81)
          (name "Pin_3" (effects (font (size 1.27 1.27))))
          (number "3" (effects (font (size 1.27 1.27))))
        )
        (pin passive line (at 7.62 0 180) (length 3.81)
          (name "Pin_4" (effects (font (size 1.27 1.27))))
          (number "4" (effects (font (size 1.27 1.27))))
        )
        (pin passive line (at -5.08 -2.54 0) (length 3.81)
          (name "Pin_5" (effects (font (size 1.27 1.27))))
          (number "5" (effects (font (size 1.27 1.27))))
        )
        (pin passive line (at 7.62 -2.54 180) (length 3.81)
          (name "Pin_6" (effects (font (size 1.27 1.27))))
          (number "6" (effects (font (size 1.27 1.27))))
        )
      )
    )
    (symbol "Device:Antenna" (pin_numbers hide) (pin_names (offset 1.016) hide) (in_bom yes) (on_board yes)
      (property "Reference" "AE" (id 0) (at -1.905 1.905 0)
        (effects (font (size 1.27 1.27)) (justify right))
      )
      (property "Value" "Antenna" (id 1) (at -1.905 0 0)
        (effects (font (size 1.27 1.27)) (justify right))
      )
      (property "Footprint" "" (id 2) (at 0 0 0)
        (effects (font (size 1.27 1.27)) hide)
      )
      (property "Datasheet" "~" (id 3) (at 0 0 0)
        (effects (font (size 1.27 1.27)) hide)
      )
      (property "ki_keywords" "antenna" (id 4) (at 0 0 0)
        (effects (font (size 1.27 1.27)) hide)
      )
      (property "ki_description" "Antenna" (id 5) (at 0 0 0)
        (effects (font (size 1.27 1.27)) hide)
      )
      (symbol "Antenna_0_1"
        (polyline
          (pts
            (xy 0 2.54)
            (xy 0 -3.81)
          )
          (stroke (width 0.254) (type default) (color 0 0 0 0))
          (fill (type none))
        )
        (polyline
          (pts
            (xy 1.27 2.54)
            (xy 0 -2.54)
            (xy -1.27 2.54)
          )
          (stroke (width 0.254) (type default) (color 0 0 0 0))
          (fill (type none))
        )
      )
      (symbol "Antenna_1_1"
        (pin input line (at 0 -5.08 90) (length 2.54)
          (name "A" (effects (font (size 1.27 1.27))))
          (number "1" (effects (font (size 1.27 1.27))))
        )
      )
    )
    (symbol "Device:Battery_Cell" (pin_numbers hide) (pin_names (offset 0) hide) (in_bom yes) (on_board yes)
      (property "Reference" "BT" (id 0) (at 2.54 2.54 0)
        (effects (font (size 1.27 1.27)) (justify left))
      )
      (property "Value" "Battery_Cell" (id 1) (at 2.54 0 0)
        (effects (font (size 1.27 1.27)) (justify left))
      )
      (property "Footprint" "" (id 2) (at 0 1.524 90)
        (effects (font (size 1.27 1.27)) hide)
      )
      (property "Datasheet" "~" (id 3) (at 0 1.524 90)
        (effects (font (size 1.27 1.27)) hide)
      )
      (property "ki_keywords" "battery cell" (id 4) (at 0 0 0)
        (effects (font (size 1.27 1.27)) hide)
      )
      (property "ki_description" "Single-cell battery" (id 5) (at 0 0 0)
        (effects (font (size 1.27 1.27)) hide)
      )
      (symbol "Battery_Cell_0_1"
        (rectangle (start -2.286 1.778) (end 2.286 1.524)
          (stroke (width 0) (type default) (color 0 0 0 0))
          (fill (type outline))
        )
        (rectangle (start -1.5748 1.1938) (end 1.4732 0.6858)
          (stroke (width 0) (type default) (color 0 0 0 0))
          (fill (type outline))
        )
        (polyline
          (pts
            (xy 0 0.762)
            (xy 0 0)
          )
          (stroke (width 0) (type default) (color 0 0 0 0))
          (fill (type none))
        )
        (polyline
          (pts
            (xy 0 1.778)
            (xy 0 2.54)
          )
          (stroke (width 0) (type default) (color 0 0 0 0))
          (fill (type none))
        )
        (polyline
          (pts
            (xy 0.508 3.429)
            (xy 1.524 3.429)
          )
          (stroke (width 0.254) (type default) (color 0 0 0 0))
          (fill (type none))
        )
        (polyline
          (pts
            (xy 1.016 3.937)
            (xy 1.016 2.921)
          )
          (stroke (width 0.254) (type default) (color 0 0 0 0))
          (fill (type none))
        )
      )
      (symbol "Battery_Cell_1_1"
        (pin passive line (at 0 5.08 270) (length 2.54)
          (name "+" (effects (font (size 1.27 1.27))))
          (number "1" (effects (font (size 1.27 1.27))))
        )
        (pin passive line (at 0 -2.54 90) (length 2.54)
          (name "-" (effects (font (size 1.27 1.27))))
          (number "2" (effects (font (size 1.27 1.27))))
        )
      )
    )
    (symbol "Device:C" (pin_numbers hide) (pin_names (offset 0.254)) (in_bom yes) (on_board yes)
      (property "Reference" "C" (id 0) (at 0.635 2.54 0)
        (effects (font (size 1.27 1.27)) (justify left))
      )
      (property "Value" "C" (id 1) (at 0.635 -2.54 0)
        (effects (font (size 1.27 1.27)) (justify left))
      )
      (property "Footprint" "" (id 2) (at 0.9652 -3.81 0)
        (effects (font (size 1.27 1.27)) hide)
      )
      (property "Datasheet" "~" (id 3) (at 0 0 0)
        (effects (font (size 1.27 1.27)) hide)
      )
      (property "ki_keywords" "cap capacitor" (id 4) (at 0 0 0)
        (effects (font (size 1.27 1.27)) hide)
      )
      (property "ki_description" "Unpolarized capacitor" (id 5) (at 0 0 0)
        (effects (font (size 1.27 1.27)) hide)
      )
      (property "ki_fp_filters" "C_*" (id 6) (at 0 0 0)
        (effects (font (size 1.27 1.27)) hide)
      )
      (symbol "C_0_1"
        (polyline
          (pts
            (xy -2.032 -0.762)
            (xy 2.032 -0.762)
          )
          (stroke (width 0.508) (type default) (color 0 0 0 0))
          (fill (type none))
        )
        (polyline
          (pts
            (xy -2.032 0.762)
            (xy 2.032 0.762)
          )
          (stroke (width 0.508) (type default) (color 0 0 0 0))
          (fill (type none))
        )
      )
      (symbol "C_1_1"
        (pin passive line (at 0 3.81 270) (length 2.794)
          (name "~" (effects (font (size 1.27 1.27))))
          (number "1" (effects (font (size 1.27 1.27))))
        )
        (pin passive line (at 0 -3.81 90) (length 2.794)
          (name "~" (effects (font (size 1.27 1.27))))
          (number "2" (effects (font (size 1.27 1.27))))
        )
      )
    )
    (symbol "Device:LED" (pin_numbers hide) (pin_names (offset 1.016) hide) (in_bom yes) (on_board yes)
      (property "Reference" "D" (id 0) (at 0 2.54 0)
        (effects (font (size 1.27 1.27)))
      )
      (property "Value" "LED" (id 1) (at 0 -2.54 0)
        (effects (font (size 1.27 1.27)))
      )
      (property "Footprint" "" (id 2) (at 0 0 0)
        (effects (font (size 1.27 1.27)) hide)
      )
      (property "Datasheet" "~" (id 3) (at 0 0 0)
        (effects (font (size 1.27 1.27)) hide)
      )
      (property "ki_keywords" "LED diode" (id 4) (at 0 0 0)
        (effects (font (size 1.27 1.27)) hide)
      )
      (property "ki_description" "Light emitting diode" (id 5) (at 0 0 0)
        (effects (font (size 1.27 1.27)) hide)
      )
      (property "ki_fp_filters" "LED* LED_SMD:* LED_THT:*" (id 6) (at 0 0 0)
        (effects (font (size 1.27 1.27)) hide)
      )
      (symbol "LED_0_1"
        (polyline
          (pts
            (xy -1.27 -1.27)
            (xy -1.27 1.27)
          )
          (stroke (width 0.254) (type default) (color 0 0 0 0))
          (fill (type none))
        )
        (polyline
          (pts
            (xy -1.27 0)
            (xy 1.27 0)
          )
          (stroke (width 0) (type default) (color 0 0 0 0))
          (fill (type none))
        )
        (polyline
          (pts
            (xy 1.27 -1.27)
            (xy 1.27 1.27)
            (xy -1.27 0)
            (xy 1.27 -1.27)
          )
          (stroke (width 0.254) (type default) (color 0 0 0 0))
          (fill (type none))
        )
        (polyline
          (pts
            (xy -3.048 -0.762)
            (xy -4.572 -2.286)
            (xy -3.81 -2.286)
            (xy -4.572 -2.286)
            (xy -4.572 -1.524)
          )
          (stroke (width 0) (type default) (color 0 0 0 0))
          (fill (type none))
        )
        (polyline
          (pts
            (xy -1.778 -0.762)
            (xy -3.302 -2.286)
            (xy -2.54 -2.286)
            (xy -3.302 -2.286)
            (xy -3.302 -1.524)
          )
          (stroke (width 0) (type default) (color 0 0 0 0))
          (fill (type none))
        )
      )
      (symbol "LED_1_1"
        (pin passive line (at -3.81 0 0) (length 2.54)
          (name "K" (effects (font (size 1.27 1.27))))
          (number "1" (effects (font (size 1.27 1.27))))
        )
        (pin passive line (at 3.81 0 180) (length 2.54)
          (name "A" (effects (font (size 1.27 1.27))))
          (number "2" (effects (font (size 1.27 1.27))))
        )
      )
    )
    (symbol "Device:R" (pin_numbers hide) (pin_names (offset 0)) (in_bom yes) (on_board yes)
      (property "Reference" "R" (id 0) (at 2.032 0 90)
        (effects (font (size 1.27 1.27)))
      )
      (property "Value" "R" (id 1) (at 0 0 90)
        (effects (font (size 1.27 1.27)))
      )
      (property "Footprint" "" (id 2) (at -1.778 0 90)
        (effects (font (size 1.27 1.27)) hide)
      )
      (property "Datasheet" "~" (id 3) (at 0 0 0)
        (effects (font (size 1.27 1.27)) hide)
      )
      (property "ki_keywords" "R res resistor" (id 4) (at 0 0 0)
        (effects (font (size 1.27 1.27)) hide)
      )
      (property "ki_description" "Resistor" (id 5) (at 0 0 0)
        (effects (font (size 1.27 1.27)) hide)
      )
      (property "ki_fp_filters" "R_*" (id 6) (at 0 0 0)
        (effects (font (size 1.27 1.27)) hide)
      )
      (symbol "R_0_1"
        (rectangle (start -1.016 -2.54) (end 1.016 2.54)
          (stroke (width 0.254) (type default) (color 0 0 0 0))
          (fill (type none))
        )
      )
      (symbol "R_1_1"
        (pin passive line (at 0 3.81 270) (length 1.27)
          (name "~" (effects (font (size 1.27 1.27))))
          (number "1" (effects (font (size 1.27 1.27))))
        )
        (pin passive line (at 0 -3.81 90) (length 1.27)
          (name "~" (effects (font (size 1.27 1.27))))
          (number "2" (effects (font (size 1.27 1.27))))
        )
      )
    )
    (symbol "LORA_ATTINY84-rescue:ATtiny84A-SSU-MCU_Microchip_ATtiny" (in_bom yes) (on_board yes)
      (property "Reference" "U" (id 0) (at -12.7 21.59 0)
        (effects (font (size 1.27 1.27)) (justify left bottom))
      )
      (property "Value" "ATtiny84A-SSU-MCU_Microchip_ATtiny" (id 1) (at 2.54 -21.59 0)
        (effects (font (size 1.27 1.27)) (justify left top))
      )
      (property "Footprint" "Package_SO:SOIC-14_3.9x8.7mm_P1.27mm" (id 2) (at 0 0 0)
        (effects (font (size 1.27 1.27) italic) hide)
      )
      (property "Datasheet" "" (id 3) (at 0 0 0)
        (effects (font (size 1.27 1.27)) hide)
      )
      (property "ki_fp_filters" "SOIC*3.9x8.7mm*P1.27mm*" (id 4) (at 0 0 0)
        (effects (font (size 1.27 1.27)) hide)
      )
      (symbol "ATtiny84A-SSU-MCU_Microchip_ATtiny_0_1"
        (rectangle (start -12.7 -20.32) (end 12.7 20.32)
          (stroke (width 0.254) (type default) (color 0 0 0 0))
          (fill (type background))
        )
      )
      (symbol "ATtiny84A-SSU-MCU_Microchip_ATtiny_1_1"
        (pin power_in line (at 0 22.86 270) (length 2.54)
          (name "VCC" (effects (font (size 1.27 1.27))))
          (number "1" (effects (font (size 1.27 1.27))))
        )
        (pin tri_state line (at 15.24 7.62 180) (length 2.54)
          (name "PA3" (effects (font (size 1.27 1.27))))
          (number "10" (effects (font (size 1.27 1.27))))
        )
        (pin tri_state line (at 15.24 10.16 180) (length 2.54)
          (name "PA2" (effects (font (size 1.27 1.27))))
          (number "11" (effects (font (size 1.27 1.27))))
        )
        (pin tri_state line (at 15.24 12.7 180) (length 2.54)
          (name "PA1" (effects (font (size 1.27 1.27))))
          (number "12" (effects (font (size 1.27 1.27))))
        )
        (pin tri_state line (at 15.24 15.24 180) (length 2.54)
          (name "AREF/PA0" (effects (font (size 1.27 1.27))))
          (number "13" (effects (font (size 1.27 1.27))))
        )
        (pin power_in line (at 0 -22.86 90) (length 2.54)
          (name "GND" (effects (font (size 1.27 1.27))))
          (number "14" (effects (font (size 1.27 1.27))))
        )
        (pin tri_state line (at 15.24 -7.62 180) (length 2.54)
          (name "XTAL1/PB0" (effects (font (size 1.27 1.27))))
          (number "2" (effects (font (size 1.27 1.27))))
        )
        (pin tri_state line (at 15.24 -10.16 180) (length 2.54)
          (name "XTAL2/PB1" (effects (font (size 1.27 1.27))))
          (number "3" (effects (font (size 1.27 1.27))))
        )
        (pin tri_state line (at 15.24 -15.24 180) (length 2.54)
          (name "~{RESET}/PB3" (effects (font (size 1.27 1.27))))
          (number "4" (effects (font (size 1.27 1.27))))
        )
        (pin tri_state line (at 15.24 -12.7 180) (length 2.54)
          (name "PB2" (effects (font (size 1.27 1.27))))
          (number "5" (effects (font (size 1.27 1.27))))
        )
        (pin tri_state line (at 15.24 -2.54 180) (length 2.54)
          (name "PA7" (effects (font (size 1.27 1.27))))
          (number "6" (effects (font (size 1.27 1.27))))
        )
        (pin tri_state line (at 15.24 0 180) (length 2.54)
          (name "PA6" (effects (font (size 1.27 1.27))))
          (number "7" (effects (font (size 1.27 1.27))))
        )
        (pin tri_state line (at 15.24 2.54 180) (length 2.54)
          (name "PA5" (effects (font (size 1.27 1.27))))
          (number "8" (effects (font (size 1.27 1.27))))
        )
        (pin tri_state line (at 15.24 5.08 180) (length 2.54)
          (name "PA4" (effects (font (size 1.27 1.27))))
          (number "9" (effects (font (size 1.27 1.27))))
        )
      )
    )
    (symbol "RF_Module:RFM95W-868S2" (pin_names (offset 1.016)) (in_bom yes) (on_board yes)
      (property "Reference" "U" (id 0) (at -10.414 11.684 0)
        (effects (font (size 1.27 1.27)) (justify left))
      )
      (property "Value" "RFM95W-868S2" (id 1) (at 1.524 11.43 0)
        (effects (font (size 1.27 1.27)) (justify left))
      )
      (property "Footprint" "" (id 2) (at -83.82 41.91 0)
        (effects (font (size 1.27 1.27)) hide)
      )
      (property "Datasheet" "https://www.hoperf.com/data/upload/portal/20181127/5bfcbea20e9ef.pdf" (id 3) (at -83.82 41.91 0)
        (effects (font (size 1.27 1.27)) hide)
      )
      (property "ki_keywords" "Low power long range transceiver module" (id 4) (at 0 0 0)
        (effects (font (size 1.27 1.27)) hide)
      )
      (property "ki_description" "Low power long range transceiver module, SPI and parallel interface, 868 MHz, spreading factor 6 to12, bandwith 7.8 to 500kHz, -111 to -148 dBm, SMD-16, DIP-16" (id 5) (at 0 0 0)
        (effects (font (size 1.27 1.27)) hide)
      )
      (property "ki_fp_filters" "HOPERF*RFM9XW*" (id 6) (at 0 0 0)
        (effects (font (size 1.27 1.27)) hide)
      )
      (symbol "RFM95W-868S2_0_1"
        (rectangle (start -10.16 10.16) (end 10.16 -12.7)
          (stroke (width 0.254) (type default) (color 0 0 0 0))
          (fill (type background))
        )
      )
      (symbol "RFM95W-868S2_1_1"
        (pin power_in line (at -2.54 -15.24 90) (length 2.54)
          (name "GND" (effects (font (size 1.27 1.27))))
          (number "1" (effects (font (size 1.27 1.27))))
        )
        (pin power_in line (at 2.54 -15.24 90) (length 2.54)
          (name "GND" (effects (font (size 1.27 1.27))))
          (number "10" (effects (font (size 1.27 1.27))))
        )
        (pin bidirectional line (at 12.7 -2.54 180) (length 2.54)
          (name "DIO3" (effects (font (size 1.27 1.27))))
          (number "11" (effects (font (size 1.27 1.27))))
        )
        (pin bidirectional line (at 12.7 0 180) (length 2.54)
          (name "DIO4" (effects (font (size 1.27 1.27))))
          (number "12" (effects (font (size 1.27 1.27))))
        )
        (pin power_in line (at 0 12.7 270) (length 2.54)
          (name "3.3V" (effects (font (size 1.27 1.27))))
          (number "13" (effects (font (size 1.27 1.27))))
        )
        (pin bidirectional line (at 12.7 -10.16 180) (length 2.54)
          (name "DIO0" (effects (font (size 1.27 1.27))))
          (number "14" (effects (font (size 1.27 1.27))))
        )
        (pin bidirectional line (at 12.7 -7.62 180) (length 2.54)
          (name "DIO1" (effects (font (size 1.27 1.27))))
          (number "15" (effects (font (size 1.27 1.27))))
        )
        (pin bidirectional line (at 12.7 -5.08 180) (length 2.54)
          (name "DIO2" (effects (font (size 1.27 1.27))))
          (number "16" (effects (font (size 1.27 1.27))))
        )
        (pin output line (at -12.7 2.54 0) (length 2.54)
          (name "MISO" (effects (font (size 1.27 1.27))))
          (number "2" (effects (font (size 1.27 1.27))))
        )
        (pin input line (at -12.7 5.08 0) (length 2.54)
          (name "MOSI" (effects (font (size 1.27 1.27))))
          (number "3" (effects (font (size 1.27 1.27))))
        )
        (pin input line (at -12.7 7.62 0) (length 2.54)
          (name "SCK" (effects (font (size 1.27 1.27))))
          (number "4" (effects (font (size 1.27 1.27))))
        )
        (pin input line (at -12.7 0 0) (length 2.54)
          (name "NSS" (effects (font (size 1.27 1.27))))
          (number "5" (effects (font (size 1.27 1.27))))
        )
        (pin bidirectional line (at -12.7 -5.08 0) (length 2.54)
          (name "RESET" (effects (font (size 1.27 1.27))))
          (number "6" (effects (font (size 1.27 1.27))))
        )
        (pin bidirectional line (at 12.7 2.54 180) (length 2.54)
          (name "DIO5" (effects (font (size 1.27 1.27))))
          (number "7" (effects (font (size 1.27 1.27))))
        )
        (pin power_in line (at 0 -15.24 90) (length 2.54)
          (name "GND" (effects (font (size 1.27 1.27))))
          (number "8" (effects (font (size 1.27 1.27))))
        )
        (pin bidirectional line (at 12.7 7.62 180) (length 2.54)
          (name "ANT" (effects (font (size 1.27 1.27))))
          (number "9" (effects (font (size 1.27 1.27))))
        )
      )
    )
    (symbol "Sensor:BME280" (in_bom yes) (on_board yes)
      (property "Reference" "U" (id 0) (at -8.89 11.43 0)
        (effects (font (size 1.27 1.27)))
      )
      (property "Value" "BME280" (id 1) (at 7.62 11.43 0)
        (effects (font (size 1.27 1.27)))
      )
      (property "Footprint" "Package_LGA:Bosch_LGA-8_2.5x2.5mm_P0.65mm_ClockwisePinNumbering" (id 2) (at 38.1 -11.43 0)
        (effects (font (size 1.27 1.27)) hide)
      )
      (property "Datasheet" "https://ae-bst.resource.bosch.com/media/_tech/media/datasheets/BST-BME280-DS002.pdf" (id 3) (at 0 -5.08 0)
        (effects (font (size 1.27 1.27)) hide)
      )
      (property "ki_keywords" "Bosch pressure humidity temperature environment environmental measurement digital" (id 4) (at 0 0 0)
        (effects (font (size 1.27 1.27)) hide)
      )
      (property "ki_description" "3-in-1 sensor, humidity, pressure, temperature, I2C and SPI interface, 1.71-3.6V, LGA-8" (id 5) (at 0 0 0)
        (effects (font (size 1.27 1.27)) hide)
      )
      (property "ki_fp_filters" "*LGA*2.5x2.5mm*P0.65mm*Clockwise*" (id 6) (at 0 0 0)
        (effects (font (size 1.27 1.27)) hide)
      )
      (symbol "BME280_0_1"
        (rectangle (start -10.16 10.16) (end 10.16 -10.16)
          (stroke (width 0.254) (type default) (color 0 0 0 0))
          (fill (type background))
        )
      )
      (symbol "BME280_1_1"
        (pin power_in line (at -2.54 -15.24 90) (length 5.08)
          (name "GND" (effects (font (size 1.27 1.27))))
          (number "1" (effects (font (size 1.27 1.27))))
        )
        (pin input line (at 15.24 -7.62 180) (length 5.08)
          (name "CSB" (effects (font (size 1.27 1.27))))
          (number "2" (effects (font (size 1.27 1.27))))
        )
        (pin bidirectional line (at 15.24 -2.54 180) (length 5.08)
          (name "SDI" (effects (font (size 1.27 1.27))))
          (number "3" (effects (font (size 1.27 1.27))))
        )
        (pin input line (at 15.24 2.54 180) (length 5.08)
          (name "SCK" (effects (font (size 1.27 1.27))))
          (number "4" (effects (font (size 1.27 1.27))))
        )
        (pin bidirectional line (at 15.24 7.62 180) (length 5.08)
          (name "SDO" (effects (font (size 1.27 1.27))))
          (number "5" (effects (font (size 1.27 1.27))))
        )
        (pin power_in line (at -2.54 15.24 270) (length 5.08)
          (name "VDDIO" (effects (font (size 1.27 1.27))))
          (number "6" (effects (font (size 1.27 1.27))))
        )
        (pin power_in line (at 2.54 -15.24 90) (length 5.08)
          (name "GND" (effects (font (size 1.27 1.27))))
          (number "7" (effects (font (size 1.27 1.27))))
        )
        (pin power_in line (at 2.54 15.24 270) (length 5.08)
          (name "VDD" (effects (font (size 1.27 1.27))))
          (number "8" (effects (font (size 1.27 1.27))))
        )
      )
    )
    (symbol "Sensor:BME680" (in_bom yes) (on_board yes)
      (property "Reference" "U" (id 0) (at -8.89 11.43 0)
        (effects (font (size 1.27 1.27)))
      )
      (property "Value" "BME680" (id 1) (at 7.62 11.43 0)
        (effects (font (size 1.27 1.27)))
      )
      (property "Footprint" "Package_LGA:Bosch_LGA-8_3x3mm_P0.8mm_ClockwisePinNumbering" (id 2) (at 36.83 -11.43 0)
        (effects (font (size 1.27 1.27)) hide)
      )
      (property "Datasheet" "https://ae-bst.resource.bosch.com/media/_tech/media/datasheets/BST-BME680-DS001.pdf" (id 3) (at 0 -5.08 0)
        (effects (font (size 1.27 1.27)) hide)
      )
      (property "ki_keywords" "Bosch gas pressure humidity temperature environment environmental measurement digital" (id 4) (at 0 0 0)
        (effects (font (size 1.27 1.27)) hide)
      )
      (property "ki_description" "4-in-1 sensor, gas, humidity, pressure, temperature, I2C and SPI interface, 1.71-3.6V, LGA-8" (id 5) (at 0 0 0)
        (effects (font (size 1.27 1.27)) hide)
      )
      (property "ki_fp_filters" "*LGA*3x3mm*P0.8mm*Clockwise*" (id 6) (at 0 0 0)
        (effects (font (size 1.27 1.27)) hide)
      )
      (symbol "BME680_0_1"
        (rectangle (start -10.16 10.16) (end 10.16 -10.16)
          (stroke (width 0.254) (type default) (color 0 0 0 0))
          (fill (type background))
        )
      )
      (symbol "BME680_1_1"
        (pin power_in line (at -2.54 -15.24 90) (length 5.08)
          (name "GND" (effects (font (size 1.27 1.27))))
          (number "1" (effects (font (size 1.27 1.27))))
        )
        (pin input line (at 15.24 -7.62 180) (length 5.08)
          (name "CSB" (effects (font (size 1.27 1.27))))
          (number "2" (effects (font (size 1.27 1.27))))
        )
        (pin bidirectional line (at 15.24 -2.54 180) (length 5.08)
          (name "SDI" (effects (font (size 1.27 1.27))))
          (number "3" (effects (font (size 1.27 1.27))))
        )
        (pin input line (at 15.24 2.54 180) (length 5.08)
          (name "SCK" (effects (font (size 1.27 1.27))))
          (number "4" (effects (font (size 1.27 1.27))))
        )
        (pin bidirectional line (at 15.24 7.62 180) (length 5.08)
          (name "SDO" (effects (font (size 1.27 1.27))))
          (number "5" (effects (font (size 1.27 1.27))))
        )
        (pin power_in line (at -2.54 15.24 270) (length 5.08)
          (name "VDDIO" (effects (font (size 1.27 1.27))))
          (number "6" (effects (font (size 1.27 1.27))))
        )
        (pin power_in line (at 2.54 -15.24 90) (length 5.08)
          (name "GND" (effects (font (size 1.27 1.27))))
          (number "7" (effects (font (size 1.27 1.27))))
        )
        (pin power_in line (at 2.54 15.24 270) (length 5.08)
          (name "VDD" (effects (font (size 1.27 1.27))))
          (number "8" (effects (font (size 1.27 1.27))))
        )
      )
    )
    (symbol "power:+3V3" (power) (pin_names (offset 0)) (in_bom yes) (on_board yes)
      (property "Reference" "#PWR" (id 0) (at 0 -3.81 0)
        (effects (font (size 1.27 1.27)) hide)
      )
      (property "Value" "+3V3" (id 1) (at 0 3.556 0)
        (effects (font (size 1.27 1.27)))
      )
      (property "Footprint" "" (id 2) (at 0 0 0)
        (effects (font (size 1.27 1.27)) hide)
      )
      (property "Datasheet" "" (id 3) (at 0 0 0)
        (effects (font (size 1.27 1.27)) hide)
      )
      (property "ki_keywords" "power-flag" (id 4) (at 0 0 0)
        (effects (font (size 1.27 1.27)) hide)
      )
      (property "ki_description" "Power symbol creates a global label with name \"+3V3\"" (id 5) (at 0 0 0)
        (effects (font (size 1.27 1.27)) hide)
      )
      (symbol "+3V3_0_1"
        (polyline
          (pts
            (xy -0.762 1.27)
            (xy 0 2.54)
          )
          (stroke (width 0) (type default) (color 0 0 0 0))
          (fill (type none))
        )
        (polyline
          (pts
            (xy 0 0)
            (xy 0 2.54)
          )
          (stroke (width 0) (type default) (color 0 0 0 0))
          (fill (type none))
        )
        (polyline
          (pts
            (xy 0 2.54)
            (xy 0.762 1.27)
          )
          (stroke (width 0) (type default) (color 0 0 0 0))
          (fill (type none))
        )
      )
      (symbol "+3V3_1_1"
        (pin power_in line (at 0 0 90) (length 0) hide
          (name "+3V3" (effects (font (size 1.27 1.27))))
          (number "1" (effects (font (size 1.27 1.27))))
        )
      )
    )
    (symbol "power:GND" (power) (pin_names (offset 0)) (in_bom yes) (on_board yes)
      (property "Reference" "#PWR" (id 0) (at 0 -6.35 0)
        (effects (font (size 1.27 1.27)) hide)
      )
      (property "Value" "GND" (id 1) (at 0 -3.81 0)
        (effects (font (size 1.27 1.27)))
      )
      (property "Footprint" "" (id 2) (at 0 0 0)
        (effects (font (size 1.27 1.27)) hide)
      )
      (property "Datasheet" "" (id 3) (at 0 0 0)
        (effects (font (size 1.27 1.27)) hide)
      )
      (property "ki_keywords" "power-flag" (id 4) (at 0 0 0)
        (effects (font (size 1.27 1.27)) hide)
      )
      (property "ki_description" "Power symbol creates a global label with name \"GND\" , ground" (id 5) (at 0 0 0)
        (effects (font (size 1.27 1.27)) hide)
      )
      (symbol "GND_0_1"
        (polyline
          (pts
            (xy 0 0)
            (xy 0 -1.27)
            (xy 1.27 -1.27)
            (xy 0 -2.54)
            (xy -1.27 -1.27)
            (xy 0 -1.27)
          )
          (stroke (width 0) (type default) (color 0 0 0 0))
          (fill (type none))
        )
      )
      (symbol "GND_1_1"
        (pin power_in line (at 0 0 270) (length 0) hide
          (name "GND" (effects (font (size 1.27 1.27))))
          (number "1" (effects (font (size 1.27 1.27))))
        )
      )
    )
  )

  (junction (at 96.52 76.2) (diameter 0) (color 0 0 0 0)
    (uuid 057af6bb-cf6f-4bfb-b0c0-2e92a2c09a47)
  )
  (junction (at 135.89 79.375) (diameter 0) (color 0 0 0 0)
    (uuid 18b7e157-ae67-48ad-bd7c-9fef6fe45b22)
  )
  (junction (at 27.94 43.18) (diameter 0) (color 0 0 0 0)
    (uuid 240e5dac-6242-47a5-bbef-f76d11c715c0)
  )
  (junction (at 135.89 63.5) (diameter 0) (color 0 0 0 0)
    (uuid 2846428d-39de-4eae-8ce2-64955d56c493)
  )
  (junction (at 60.96 45.72) (diameter 0) (color 0 0 0 0)
    (uuid 57c0c267-8bf9-4cc7-b734-d71a239ac313)
  )
  (junction (at 89.535 81.28) (diameter 0) (color 0 0 0 0)
    (uuid 721d1be9-236e-470b-ba69-f1cc6c43faf9)
  )
  (junction (at 101.6 84.455) (diameter 0) (color 0 0 0 0)
    (uuid 7b044939-8c4d-444f-b9e0-a15fcdeb5a86)
  )
  (junction (at 27.94 40.64) (diameter 0) (color 0 0 0 0)
    (uuid 7f2301df-e4bc-479e-a681-cc59c9a2dbbb)
  )
  (junction (at 138.43 33.02) (diameter 0) (color 0 0 0 0)
    (uuid 8bc2c25a-a1f1-4ce8-b96a-a4f8f4c35079)
  )
  (junction (at 62.23 43.18) (diameter 0) (color 0 0 0 0)
    (uuid abe07c9a-17c3-43b5-b7a6-ae867ac27ea7)
  )
  (junction (at 92.71 76.2) (diameter 0) (color 0 0 0 0)
    (uuid cb16d05e-318b-4e51-867b-70d791d75bea)
  )
  (junction (at 135.89 33.02) (diameter 0) (color 0 0 0 0)
    (uuid d39d813e-3e64-490c-ba5c-a64bb5ad6bd0)
  )
  (junction (at 135.89 109.855) (diameter 0) (color 0 0 0 0)
    (uuid e502d1d5-04b0-4d4b-b5c3-8c52d09668e7)
  )
  (junction (at 48.26 74.93) (diameter 0) (color 0 0 0 0)
    (uuid ee41cb8e-512d-41d2-81e1-3c50fff32aeb)
  )

  (no_connect (at 45.72 30.48) (uuid 6595b9c7-02ee-4647-bde5-6b566e35163e))
  (no_connect (at 50.8 55.88) (uuid 770ad51a-7219-4633-b24a-bd20feb0a6c5))
  (no_connect (at 53.34 30.48) (uuid 965308c8-e014-459a-b9db-b8493a601c62))
  (no_connect (at 50.8 30.48) (uuid b1c649b1-f44d-46c7-9dea-818e75a1b87e))
  (no_connect (at 43.18 30.48) (uuid b7199d9b-bebb-4100-9ad3-c2bd31e21d65))
  (no_connect (at 48.26 30.48) (uuid f3628265-0155-43e2-a467-c40ff783e265))

  (wire (pts (xy 101.6 84.455) (xy 102.235 84.455))
    (stroke (width 0) (type default) (color 0 0 0 0))
    (uuid 0325ec43-0390-4ae2-b055-b1ec6ce17b1c)
  )
  (wire (pts (xy 135.89 63.5) (xy 138.43 63.5))
    (stroke (width 0) (type default) (color 0 0 0 0))
    (uuid 071522c0-d0ed-49b9-906e-6295f67fb0dc)
  )
  (wire (pts (xy 62.23 43.18) (xy 64.77 43.18))
    (stroke (width 0) (type default) (color 0 0 0 0))
    (uuid 0c3dceba-7c95-4b3d-b590-0eb581444beb)
  )
  (wire (pts (xy 57.15 48.26) (xy 57.15 45.72))
    (stroke (width 0) (type default) (color 0 0 0 0))
    (uuid 0f22151c-f260-4674-b486-4710a2c42a55)
  )
  (wire (pts (xy 133.35 109.855) (xy 135.89 109.855))
    (stroke (width 0) (type default) (color 0 0 0 0))
    (uuid 0f31f11f-c374-4640-b9a4-07bbdba8d354)
  )
  (wire (pts (xy 19.05 40.64) (xy 19.05 63.5))
    (stroke (width 0) (type default) (color 0 0 0 0))
    (uuid 101ef598-601d-400e-9ef6-d655fbb1dbfa)
  )
  (wire (pts (xy 60.96 40.64) (xy 62.23 40.64))
    (stroke (width 0) (type default) (color 0 0 0 0))
    (uuid 16a9ae8c-3ad2-439b-8efe-377c994670c7)
  )
  (wire (pts (xy 101.6 84.455) (xy 101.6 83.82))
    (stroke (width 0) (type default) (color 0 0 0 0))
    (uuid 173f6f06-e7d0-42ac-ab03-ce6b79b9eeee)
  )
  (wire (pts (xy 85.09 76.2) (xy 92.71 76.2))
    (stroke (width 0) (type default) (color 0 0 0 0))
    (uuid 1e518c2a-4cb7-4599-a1fa-5b9f847da7d3)
  )
  (wire (pts (xy 120.65 40.64) (xy 119.38 40.64))
    (stroke (width 0) (type default) (color 0 0 0 0))
    (uuid 20cca02e-4c4d-4961-b6b4-b40a1731b220)
  )
  (wire (pts (xy 89.535 81.28) (xy 90.17 81.28))
    (stroke (width 0) (type default) (color 0 0 0 0))
    (uuid 262f1ea9-0133-4b43-be36-456207ea857c)
  )
  (wire (pts (xy 48.26 74.93) (xy 48.26 76.2))
    (stroke (width 0) (type default) (color 0 0 0 0))
    (uuid 2d210a96-f81f-42a9-8bf4-1b43c11086f3)
  )
  (wire (pts (xy 88.9 84.455) (xy 101.6 84.455))
    (stroke (width 0) (type default) (color 0 0 0 0))
    (uuid 2e842263-c0ba-46fd-a760-6624d4c78278)
  )
  (wire (pts (xy 85.09 83.82) (xy 88.9 83.82))
    (stroke (width 0) (type default) (color 0 0 0 0))
    (uuid 309b3bff-19c8-41ec-a84d-63399c649f46)
  )
  (wire (pts (xy 48.26 74.93) (xy 27.94 74.93))
    (stroke (width 0) (type default) (color 0 0 0 0))
    (uuid 34a74736-156e-4bf3-9200-cd137cfa59da)
  )
  (wire (pts (xy 93.98 114.3) (xy 96.52 114.3))
    (stroke (width 0) (type default) (color 0 0 0 0))
    (uuid 3aaee4c4-dbf7-49a5-a620-9465d8cc3ae7)
  )
  (wire (pts (xy 92.71 76.2) (xy 96.52 76.2))
    (stroke (width 0) (type default) (color 0 0 0 0))
    (uuid 4632212f-13ce-4392-bc68-ccb9ba333770)
  )
  (wire (pts (xy 135.89 63.5) (xy 135.89 64.77))
    (stroke (width 0) (type default) (color 0 0 0 0))
    (uuid 4e315e69-0417-463a-8b7f-469a08d1496e)
  )
  (wire (pts (xy 150.495 42.545) (xy 150.495 40.64))
    (stroke (width 0) (type default) (color 0 0 0 0))
    (uuid 4fa10683-33cd-4dcd-8acc-2415cd63c62a)
  )
  (wire (pts (xy 119.38 55.88) (xy 120.65 55.88))
    (stroke (width 0) (type default) (color 0 0 0 0))
    (uuid 5487601b-81d3-4c70-8f3d-cf9df9c63302)
  )
  (wire (pts (xy 86.995 78.74) (xy 86.995 78.105))
    (stroke (width 0) (type default) (color 0 0 0 0))
    (uuid 576c6616-e95d-4f1e-8ead-dea30fcdc8c2)
  )
  (wire (pts (xy 133.35 33.02) (xy 135.89 33.02))
    (stroke (width 0) (type default) (color 0 0 0 0))
    (uuid 597a11f2-5d2c-4a65-ac95-38ad106e1367)
  )
  (wire (pts (xy 135.89 33.02) (xy 138.43 33.02))
    (stroke (width 0) (type default) (color 0 0 0 0))
    (uuid 59ec3156-036e-4049-89db-91a9dd07095f)
  )
  (wire (pts (xy 135.89 79.375) (xy 135.89 78.105))
    (stroke (width 0) (type default) (color 0 0 0 0))
    (uuid 5fc9acb6-6dbb-4598-825b-4b9e7c4c67c4)
  )
  (wire (pts (xy 60.96 43.18) (xy 62.23 43.18))
    (stroke (width 0) (type default) (color 0 0 0 0))
    (uuid 61fe293f-6808-4b7f-9340-9aaac7054a97)
  )
  (wire (pts (xy 92.71 76.2) (xy 92.71 74.93))
    (stroke (width 0) (type default) (color 0 0 0 0))
    (uuid 644ae9fc-3c8e-4089-866e-a12bf371c3e9)
  )
  (wire (pts (xy 27.94 39.37) (xy 27.94 40.64))
    (stroke (width 0) (type default) (color 0 0 0 0))
    (uuid 65134029-dbd2-409a-85a8-13c2a33ff019)
  )
  (wire (pts (xy 48.26 63.5) (xy 48.26 55.88))
    (stroke (width 0) (type default) (color 0 0 0 0))
    (uuid 6781326c-6e0d-4753-8f28-0f5c687e01f9)
  )
  (wire (pts (xy 133.35 63.5) (xy 135.89 63.5))
    (stroke (width 0) (type default) (color 0 0 0 0))
    (uuid 6a2b20ae-096c-4d9f-92f8-2087c865914f)
  )
  (wire (pts (xy 119.38 102.235) (xy 120.65 102.235))
    (stroke (width 0) (type default) (color 0 0 0 0))
    (uuid 6d1d60ff-408a-47a7-892f-c5cf9ef6ca75)
  )
  (wire (pts (xy 96.52 109.22) (xy 96.52 107.95))
    (stroke (width 0) (type default) (color 0 0 0 0))
    (uuid 6d26d68f-1ca7-4ff3-b058-272f1c399047)
  )
  (wire (pts (xy 62.23 43.18) (xy 62.23 40.64))
    (stroke (width 0) (type default) (color 0 0 0 0))
    (uuid 730b670c-9bcf-4dcd-9a8d-fcaa61fb0955)
  )
  (wire (pts (xy 60.96 45.72) (xy 62.23 45.72))
    (stroke (width 0) (type default) (color 0 0 0 0))
    (uuid 7cee474b-af8f-4832-b07a-c43c1ab0b464)
  )
  (wire (pts (xy 20.32 40.64) (xy 19.05 40.64))
    (stroke (width 0) (type default) (color 0 0 0 0))
    (uuid 7f52d787-caa3-4a92-b1b2-19d554dc29a4)
  )
  (wire (pts (xy 57.15 45.72) (xy 60.96 45.72))
    (stroke (width 0) (type default) (color 0 0 0 0))
    (uuid 853ee787-6e2c-4f32-bc75-6c17337dd3d5)
  )
  (wire (pts (xy 86.995 78.105) (xy 87.63 78.105))
    (stroke (width 0) (type default) (color 0 0 0 0))
    (uuid 89e83c2e-e90a-4a50-b278-880bac0cfb49)
  )
  (wire (pts (xy 88.9 83.82) (xy 88.9 84.455))
    (stroke (width 0) (type default) (color 0 0 0 0))
    (uuid 8c0807a7-765b-4fa5-baaa-e09a2b610e6b)
  )
  (wire (pts (xy 135.89 79.375) (xy 138.43 79.375))
    (stroke (width 0) (type default) (color 0 0 0 0))
    (uuid 8c1605f9-6c91-4701-96bf-e753661d5e23)
  )
  (wire (pts (xy 93.98 109.22) (xy 96.52 109.22))
    (stroke (width 0) (type default) (color 0 0 0 0))
    (uuid 911bdcbe-493f-4e21-a506-7cbc636e2c17)
  )
  (wire (pts (xy 135.89 33.02) (xy 135.89 31.75))
    (stroke (width 0) (type default) (color 0 0 0 0))
    (uuid 926001fd-2747-4639-8c0f-4fc46ff7218d)
  )
  (wire (pts (xy 96.52 76.2) (xy 101.6 76.2))
    (stroke (width 0) (type default) (color 0 0 0 0))
    (uuid 935f462d-8b1e-4005-9f1e-17f537ab1756)
  )
  (wire (pts (xy 135.89 109.855) (xy 135.89 111.125))
    (stroke (width 0) (type default) (color 0 0 0 0))
    (uuid 998b7fa5-31a5-472e-9572-49d5226d6098)
  )
  (wire (pts (xy 97.79 62.23) (xy 97.79 64.77))
    (stroke (width 0) (type default) (color 0 0 0 0))
    (uuid 9cb12cc8-7f1a-4a01-9256-c119f11a8a02)
  )
  (wire (pts (xy 150.495 33.02) (xy 138.43 33.02))
    (stroke (width 0) (type default) (color 0 0 0 0))
    (uuid 9cbf35b8-f4d3-42a3-bb16-04ffd03fd8fd)
  )
  (wire (pts (xy 64.77 43.18) (xy 64.77 45.72))
    (stroke (width 0) (type default) (color 0 0 0 0))
    (uuid a1823eb2-fb0d-4ed8-8b96-04184ac3a9d5)
  )
  (wire (pts (xy 119.38 50.8) (xy 120.65 50.8))
    (stroke (width 0) (type default) (color 0 0 0 0))
    (uuid a29f8df0-3fae-4edf-8d9c-bd5a875b13e3)
  )
  (wire (pts (xy 133.35 79.375) (xy 135.89 79.375))
    (stroke (width 0) (type default) (color 0 0 0 0))
    (uuid a53767ed-bb28-4f90-abe0-e0ea734812a4)
  )
  (wire (pts (xy 89.535 83.82) (xy 89.535 81.28))
    (stroke (width 0) (type default) (color 0 0 0 0))
    (uuid a5e521b9-814e-4853-a5ac-f158785c6269)
  )
  (wire (pts (xy 27.94 40.64) (xy 27.94 43.18))
    (stroke (width 0) (type default) (color 0 0 0 0))
    (uuid a8447faf-e0a0-4c4a-ae53-4d4b28669151)
  )
  (wire (pts (xy 120.65 86.995) (xy 119.38 86.995))
    (stroke (width 0) (type default) (color 0 0 0 0))
    (uuid b6135480-ace6-42b2-9c47-856ef57cded1)
  )
  (wire (pts (xy 89.535 83.82) (xy 96.52 83.82))
    (stroke (width 0) (type default) (color 0 0 0 0))
    (uuid bd9595a1-04f3-4fda-8f1b-e65ad874edd3)
  )
  (wire (pts (xy 96.52 114.3) (xy 96.52 116.84))
    (stroke (width 0) (type default) (color 0 0 0 0))
    (uuid bdc7face-9f7c-4701-80bb-4cc144448db1)
  )
  (wire (pts (xy 85.09 78.74) (xy 86.995 78.74))
    (stroke (width 0) (type default) (color 0 0 0 0))
    (uuid be645d0f-8568-47a0-a152-e3ddd33563eb)
  )
  (wire (pts (xy 89.535 81.28) (xy 85.09 81.28))
    (stroke (width 0) (type default) (color 0 0 0 0))
    (uuid c1c799a0-3c93-493a-9ad7-8a0561bc69ee)
  )
  (wire (pts (xy 48.26 55.88) (xy 45.72 55.88))
    (stroke (width 0) (type default) (color 0 0 0 0))
    (uuid c701ee8e-1214-4781-a973-17bef7b6e3eb)
  )
  (wire (pts (xy 95.25 62.23) (xy 97.79 62.23))
    (stroke (width 0) (type default) (color 0 0 0 0))
    (uuid c7e7067c-5f5e-48d8-ab59-df26f9b35863)
  )
  (wire (pts (xy 19.05 63.5) (xy 48.26 63.5))
    (stroke (width 0) (type default) (color 0 0 0 0))
    (uuid c8029a4c-945d-42ca-871a-dd73ff50a1a3)
  )
  (wire (pts (xy 27.94 74.93) (xy 27.94 78.74))
    (stroke (width 0) (type default) (color 0 0 0 0))
    (uuid d0d2eee9-31f6-44fa-8149-ebb4dc2dc0dc)
  )
  (wire (pts (xy 62.23 45.72) (xy 62.23 43.18))
    (stroke (width 0) (type default) (color 0 0 0 0))
    (uuid db36f6e3-e72a-487f-bda9-88cc84536f62)
  )
  (wire (pts (xy 119.38 45.72) (xy 120.65 45.72))
    (stroke (width 0) (type default) (color 0 0 0 0))
    (uuid e3fc1e69-a11c-4c84-8952-fefb9372474e)
  )
  (wire (pts (xy 119.38 97.155) (xy 120.65 97.155))
    (stroke (width 0) (type default) (color 0 0 0 0))
    (uuid e4aa537c-eb9d-4dbb-ac87-fae46af42391)
  )
  (wire (pts (xy 27.94 43.18) (xy 33.02 43.18))
    (stroke (width 0) (type default) (color 0 0 0 0))
    (uuid e4c6fdbb-fdc7-4ad4-a516-240d84cdc120)
  )
  (wire (pts (xy 135.89 109.855) (xy 138.43 109.855))
    (stroke (width 0) (type default) (color 0 0 0 0))
    (uuid e4d2f565-25a0-48c6-be59-f4bf31ad2558)
  )
  (wire (pts (xy 119.38 92.075) (xy 120.65 92.075))
    (stroke (width 0) (type default) (color 0 0 0 0))
    (uuid f9403623-c00c-4b71-bc5c-d763ff009386)
  )

  (global_label "RST" (shape input) (at 63.5 114.3 0) (fields_autoplaced)
    (effects (font (size 1.27 1.27)) (justify left))
    (uuid 08a7c925-7fae-4530-b0c9-120e185cb318)
    (property "Intersheet References" "${INTERSHEET_REFS}" (id 0) (at 0 0 0)
      (effects (font (size 1.27 1.27)) hide)
    )
  )
  (global_label "PA7" (shape input) (at 80.01 62.23 180) (fields_autoplaced)
    (effects (font (size 1.27 1.27)) (justify right))
    (uuid 19c56563-5fe3-442a-885b-418dbc2421eb)
    (property "Intersheet References" "${INTERSHEET_REFS}" (id 0) (at 0 0 0)
      (effects (font (size 1.27 1.27)) hide)
    )
  )
  (global_label "PA3" (shape input) (at 63.5 91.44 0) (fields_autoplaced)
    (effects (font (size 1.27 1.27)) (justify left))
    (uuid 1d9cdadc-9036-4a95-b6db-fa7b3b74c869)
    (property "Intersheet References" "${INTERSHEET_REFS}" (id 0) (at 0 0 0)
      (effects (font (size 1.27 1.27)) hide)
    )
  )
  (global_label "MOSI" (shape input) (at 43.18 55.88 270) (fields_autoplaced)
    (effects (font (size 1.27 1.27)) (justify right))
    (uuid 240e07e1-770b-4b27-894f-29fd601c924d)
    (property "Intersheet References" "${INTERSHEET_REFS}" (id 0) (at 0 0 0)
      (effects (font (size 1.27 1.27)) hide)
    )
  )
  (global_label "PA7" (shape input) (at 63.5 101.6 0) (fields_autoplaced)
    (effects (font (size 1.27 1.27)) (justify left))
    (uuid 24f7628d-681d-4f0e-8409-40a129e929d9)
    (property "Intersheet References" "${INTERSHEET_REFS}" (id 0) (at 0 0 0)
      (effects (font (size 1.27 1.27)) hide)
    )
  )
  (global_label "DIO0" (shape input) (at 63.5 106.68 0) (fields_autoplaced)
    (effects (font (size 1.27 1.27)) (justify left))
    (uuid 2d6db888-4e40-41c8-b701-07170fc894bc)
    (property "Intersheet References" "${INTERSHEET_REFS}" (id 0) (at 0 0 0)
      (effects (font (size 1.27 1.27)) hide)
    )
  )
  (global_label "PA0" (shape input) (at 119.38 92.075 180) (fields_autoplaced)
    (effects (font (size 1.27 1.27)) (justify right))
    (uuid 2dc54bac-8640-4dd7-b8ed-3c7acb01a8ea)
    (property "Intersheet References" "${INTERSHEET_REFS}" (id 0) (at 0 0 0)
      (effects (font (size 1.27 1.27)) hide)
    )
  )
  (global_label "PA0" (shape input) (at 63.5 83.82 0) (fields_autoplaced)
    (effects (font (size 1.27 1.27)) (justify left))
    (uuid 2f215f15-3d52-4c91-93e6-3ea03a95622f)
    (property "Intersheet References" "${INTERSHEET_REFS}" (id 0) (at 0 0 0)
      (effects (font (size 1.27 1.27)) hide)
    )
  )
  (global_label "MISO" (shape input) (at 63.5 96.52 0) (fields_autoplaced)
    (effects (font (size 1.27 1.27)) (justify left))
    (uuid 31e08896-1992-4725-96d9-9d2728bca7a3)
    (property "Intersheet References" "${INTERSHEET_REFS}" (id 0) (at 0 0 0)
      (effects (font (size 1.27 1.27)) hide)
    )
  )
  (global_label "RST" (shape input) (at 81.28 114.3 180) (fields_autoplaced)
    (effects (font (size 1.27 1.27)) (justify right))
    (uuid 4a21e717-d46d-4d9e-8b98-af4ecb02d3ec)
    (property "Intersheet References" "${INTERSHEET_REFS}" (id 0) (at 0 0 0)
      (effects (font (size 1.27 1.27)) hide)
    )
  )
  (global_label "SCK" (shape input) (at 81.28 111.76 180) (fields_autoplaced)
    (effects (font (size 1.27 1.27)) (justify right))
    (uuid 4fb21471-41be-4be8-9687-66030f97befc)
    (property "Intersheet References" "${INTERSHEET_REFS}" (id 0) (at 0 0 0)
      (effects (font (size 1.27 1.27)) hide)
    )
  )
  (global_label "NSS" (shape input) (at 63.5 109.22 0) (fields_autoplaced)
    (effects (font (size 1.27 1.27)) (justify left))
    (uuid 5528bcad-2950-4673-90eb-c37e6952c475)
    (property "Intersheet References" "${INTERSHEET_REFS}" (id 0) (at 0 0 0)
      (effects (font (size 1.27 1.27)) hide)
    )
  )
  (global_label "PA0" (shape input) (at 119.38 45.72 180) (fields_autoplaced)
    (effects (font (size 1.27 1.27)) (justify right))
    (uuid 5edcefbe-9766-42c8-9529-28d0ec865573)
    (property "Intersheet References" "${INTERSHEET_REFS}" (id 0) (at 0 0 0)
      (effects (font (size 1.27 1.27)) hide)
    )
  )
  (global_label "DIO0" (shape input) (at 55.88 30.48 90) (fields_autoplaced)
    (effects (font (size 1.27 1.27)) (justify left))
    (uuid 63ff1c93-3f96-4c33-b498-5dd8c33bccc0)
    (property "Intersheet References" "${INTERSHEET_REFS}" (id 0) (at 0 0 0)
      (effects (font (size 1.27 1.27)) hide)
    )
  )
  (global_label "PA1" (shape input) (at 119.38 97.155 180) (fields_autoplaced)
    (effects (font (size 1.27 1.27)) (justify right))
    (uuid 70fb572d-d5ec-41e7-9482-63d4578b4f47)
    (property "Intersheet References" "${INTERSHEET_REFS}" (id 0) (at 0 0 0)
      (effects (font (size 1.27 1.27)) hide)
    )
  )
  (global_label "PB2" (shape input) (at 63.5 111.76 0) (fields_autoplaced)
    (effects (font (size 1.27 1.27)) (justify left))
    (uuid 75ffc65c-7132-4411-9f2a-ae0c73d79338)
    (property "Intersheet References" "${INTERSHEET_REFS}" (id 0) (at 0 0 0)
      (effects (font (size 1.27 1.27)) hide)
    )
  )
  (global_label "PA2" (shape input) (at 85.09 86.36 0) (fields_autoplaced)
    (effects (font (size 1.27 1.27)) (justify left))
    (uuid 7d34f6b1-ab31-49be-b011-c67fe67a8a56)
    (property "Intersheet References" "${INTERSHEET_REFS}" (id 0) (at 0 0 0)
      (effects (font (size 1.27 1.27)) hide)
    )
  )
  (global_label "PA7" (shape input) (at 85.09 91.44 0) (fields_autoplaced)
    (effects (font (size 1.27 1.27)) (justify left))
    (uuid 7e023245-2c2b-4e2b-bfb9-5d35176e88f2)
    (property "Intersheet References" "${INTERSHEET_REFS}" (id 0) (at 0 0 0)
      (effects (font (size 1.27 1.27)) hide)
    )
  )
  (global_label "PA1" (shape input) (at 119.38 50.8 180) (fields_autoplaced)
    (effects (font (size 1.27 1.27)) (justify right))
    (uuid 81a15393-727e-448b-a777-b18773023d89)
    (property "Intersheet References" "${INTERSHEET_REFS}" (id 0) (at 0 0 0)
      (effects (font (size 1.27 1.27)) hide)
    )
  )
  (global_label "MOSI" (shape input) (at 63.5 99.06 0) (fields_autoplaced)
    (effects (font (size 1.27 1.27)) (justify left))
    (uuid 852dabbf-de45-4470-8176-59d37a754407)
    (property "Intersheet References" "${INTERSHEET_REFS}" (id 0) (at 0 0 0)
      (effects (font (size 1.27 1.27)) hide)
    )
  )
  (global_label "PA0" (shape input) (at 90.17 81.28 0) (fields_autoplaced)
    (effects (font (size 1.27 1.27)) (justify left))
    (uuid 8c6a821f-8e19-48f3-8f44-9b340f7689bc)
    (property "Intersheet References" "${INTERSHEET_REFS}" (id 0) (at 0 0 0)
      (effects (font (size 1.27 1.27)) hide)
    )
  )
  (global_label "PA3" (shape input) (at 85.09 88.9 0) (fields_autoplaced)
    (effects (font (size 1.27 1.27)) (justify left))
    (uuid 8e06ba1f-e3ba-4eb9-a10e-887dffd566d6)
    (property "Intersheet References" "${INTERSHEET_REFS}" (id 0) (at 0 0 0)
      (effects (font (size 1.27 1.27)) hide)
    )
  )
  (global_label "PA1" (shape input) (at 102.235 84.455 0) (fields_autoplaced)
    (effects (font (size 1.27 1.27)) (justify left))
    (uuid a544eb0a-75db-4baf-bf54-9ca21744343b)
    (property "Intersheet References" "${INTERSHEET_REFS}" (id 0) (at 0 0 0)
      (effects (font (size 1.27 1.27)) hide)
    )
  )
  (global_label "PA1" (shape input) (at 63.5 86.36 0) (fields_autoplaced)
    (effects (font (size 1.27 1.27)) (justify left))
    (uuid bd5408e4-362d-4e43-9d39-78fb99eb52c8)
    (property "Intersheet References" "${INTERSHEET_REFS}" (id 0) (at 0 0 0)
      (effects (font (size 1.27 1.27)) hide)
    )
  )
  (global_label "SCK" (shape input) (at 63.5 93.98 0) (fields_autoplaced)
    (effects (font (size 1.27 1.27)) (justify left))
    (uuid bfc0aadc-38cf-466e-a642-68fdc3138c78)
    (property "Intersheet References" "${INTERSHEET_REFS}" (id 0) (at 0 0 0)
      (effects (font (size 1.27 1.27)) hide)
    )
  )
  (global_label "NSS" (shape input) (at 45.72 55.88 270) (fields_autoplaced)
    (effects (font (size 1.27 1.27)) (justify right))
    (uuid c01d25cd-f4bb-4ef3-b5ea-533a2a4ddb2b)
    (property "Intersheet References" "${INTERSHEET_REFS}" (id 0) (at 0 0 0)
      (effects (font (size 1.27 1.27)) hide)
    )
  )
  (global_label "PA2" (shape input) (at 63.5 88.9 0) (fields_autoplaced)
    (effects (font (size 1.27 1.27)) (justify left))
    (uuid c0eca5ed-bc5e-4618-9bcd-80945bea41ed)
    (property "Intersheet References" "${INTERSHEET_REFS}" (id 0) (at 0 0 0)
      (effects (font (size 1.27 1.27)) hide)
    )
  )
  (global_label "SCK" (shape input) (at 38.1 55.88 270) (fields_autoplaced)
    (effects (font (size 1.27 1.27)) (justify right))
    (uuid cbd8faed-e1f8-4406-87c8-58b2c504a5d4)
    (property "Intersheet References" "${INTERSHEET_REFS}" (id 0) (at 0 0 0)
      (effects (font (size 1.27 1.27)) hide)
    )
  )
  (global_label "MOSI" (shape input) (at 93.98 111.76 0) (fields_autoplaced)
    (effects (font (size 1.27 1.27)) (justify left))
    (uuid d3d7e298-1d39-4294-a3ab-c84cc0dc5e5a)
    (property "Intersheet References" "${INTERSHEET_REFS}" (id 0) (at 0 0 0)
      (effects (font (size 1.27 1.27)) hide)
    )
  )
  (global_label "MISO" (shape input) (at 81.28 109.22 180) (fields_autoplaced)
    (effects (font (size 1.27 1.27)) (justify right))
    (uuid dde51ae5-b215-445e-92bb-4a12ec410531)
    (property "Intersheet References" "${INTERSHEET_REFS}" (id 0) (at 0 0 0)
      (effects (font (size 1.27 1.27)) hide)
    )
  )
  (global_label "PB2" (shape input) (at 85.09 93.98 0) (fields_autoplaced)
    (effects (font (size 1.27 1.27)) (justify left))
    (uuid df68c26a-03b5-4466-aecf-ba34b7dce6b7)
    (property "Intersheet References" "${INTERSHEET_REFS}" (id 0) (at 0 0 0)
      (effects (font (size 1.27 1.27)) hide)
    )
  )
  (global_label "MISO" (shape input) (at 40.64 55.88 270) (fields_autoplaced)
    (effects (font (size 1.27 1.27)) (justify right))
    (uuid ee27d19c-8dca-4ac8-a760-6dfd54d28071)
    (property "Intersheet References" "${INTERSHEET_REFS}" (id 0) (at 0 0 0)
      (effects (font (size 1.27 1.27)) hide)
    )
  )

  (symbol (lib_id "power:GND") (at 48.26 121.92 0) (unit 1)
    (in_bom yes) (on_board yes)
    (uuid 00000000-0000-0000-0000-00005d662e21)
    (property "Reference" "#PWR0101" (id 0) (at 48.26 128.27 0)
      (effects (font (size 1.27 1.27)) hide)
    )
    (property "Value" "" (id 1) (at 48.387 126.3142 0))
    (property "Footprint" "" (id 2) (at 48.26 121.92 0)
      (effects (font (size 1.27 1.27)) hide)
    )
    (property "Datasheet" "" (id 3) (at 48.26 121.92 0)
      (effects (font (size 1.27 1.27)) hide)
    )
    (pin "1" (uuid 83748b8f-c554-4496-9473-77a570c7f8b2))
  )

  (symbol (lib_id "LORA_ATTINY84-rescue:ATtiny84A-SSU-MCU_Microchip_ATtiny") (at 48.26 99.06 0) (unit 1)
    (in_bom yes) (on_board yes)
    (uuid 00000000-0000-0000-0000-00005d66342e)
    (property "Reference" "ATTiny84" (id 0) (at 52.07 95.25 0)
      (effects (font (size 1.27 1.27)) (justify right))
    )
    (property "Value" "" (id 1) (at 54.61 99.06 0)
      (effects (font (size 1.27 1.27)) (justify right) hide)
    )
    (property "Footprint" "" (id 2) (at 48.26 99.06 0)
      (effects (font (size 1.27 1.27) italic) hide)
    )
    (property "Datasheet" "http://ww1.microchip.com/downloads/en/DeviceDoc/doc8183.pdf" (id 3) (at 48.26 99.06 0)
      (effects (font (size 1.27 1.27)) hide)
    )
    (pin "1" (uuid b12648df-1b46-4133-8192-da169d7fd681))
    (pin "10" (uuid e08eb964-cd52-43e0-ad5b-6abd7214ea53))
    (pin "11" (uuid b5f01b87-275e-4b1c-92c1-fbe23a8e0755))
    (pin "12" (uuid 9b164e40-a588-40aa-bbd3-bc767e01348d))
    (pin "13" (uuid 4f68bb3a-2113-4da5-82d8-a0a94aeffd6c))
    (pin "14" (uuid 6149507c-e68b-4b95-b5d1-9598de14290e))
    (pin "2" (uuid 3cd8e4c6-0707-45ed-98eb-8a97249ea117))
    (pin "3" (uuid 530abffc-aeee-4f14-9e4a-3d1fde52ff2e))
    (pin "4" (uuid 520834ac-591b-4fa1-8491-fdf7ce0d6be2))
    (pin "5" (uuid 0c3cf090-1078-49a9-aa0e-9b90a2aa336b))
    (pin "6" (uuid 5b337842-e481-4c39-9a70-0e850aabec6f))
    (pin "7" (uuid 6364286b-f0b5-4719-a9a0-eb3bbd6fa48e))
    (pin "8" (uuid 6cd5eef6-a94b-4ea5-bc57-ed07ac0c35b7))
    (pin "9" (uuid ba39d6b3-0497-4ffb-930d-c52f7e2a018a))
  )

  (symbol (lib_id "RF_Module:RFM95W-868S2") (at 45.72 43.18 90) (unit 1)
    (in_bom yes) (on_board yes)
    (uuid 00000000-0000-0000-0000-00005d664943)
    (property "Reference" "RFM95" (id 0) (at 49.53 43.18 90)
      (effects (font (size 1.27 1.27)) (justify left))
    )
    (property "Value" "" (id 1) (at 34.29 48.26 90)
      (effects (font (size 1.27 1.27)) (justify left) hide)
    )
    (property "Footprint" "" (id 2) (at 3.81 127 0)
      (effects (font (size 1.27 1.27)) hide)
    )
    (property "Datasheet" "https://www.hoperf.com/data/upload/portal/20181127/5bfcbea20e9ef.pdf" (id 3) (at 3.81 127 0)
      (effects (font (size 1.27 1.27)) hide)
    )
    (pin "1" (uuid 77ba433e-3940-4864-82e2-e016c567f196))
    (pin "10" (uuid 51bf2621-04dc-4f7e-a2a8-c88230292f50))
    (pin "11" (uuid b957bc72-053e-4468-a795-d4f88ef75f33))
    (pin "12" (uuid a8cb4ed8-ccbe-4dc9-9683-5af65f0ad7f7))
    (pin "13" (uuid 648f76e5-e2c1-4fe8-a343-6c13aa6426a8))
    (pin "14" (uuid 5f95777e-7da0-47dd-9276-f3c3694317f8))
    (pin "15" (uuid 8b09720c-6960-4ed0-85fd-74aab83c85dc))
    (pin "16" (uuid 74e04056-28b9-482a-b8e0-7a4ac72a6111))
    (pin "2" (uuid c9d69edb-565c-45a1-9b6e-69b1b02c02be))
    (pin "3" (uuid 818dc8ed-996f-40d2-a8a7-0e84e3052afb))
    (pin "4" (uuid 51e70ecb-6473-472b-92e1-c45814a171c8))
    (pin "5" (uuid 5025a6d3-b1c3-40e3-a61b-14d69fe8cfa7))
    (pin "6" (uuid cc19b3ab-dc47-4d89-a6a4-541737ad7840))
    (pin "7" (uuid 58b5444c-f333-489c-ab3f-816b12191f8c))
    (pin "8" (uuid 3d57a195-a902-441f-9065-78c7148315aa))
    (pin "9" (uuid 5d329c3a-55d3-474a-bcb9-07068f09d82f))
  )

  (symbol (lib_id "Device:LED") (at 91.44 62.23 180) (unit 1)
    (in_bom yes) (on_board yes)
    (uuid 00000000-0000-0000-0000-00005d67f14d)
    (property "Reference" "D1" (id 0) (at 91.44 55.88 0))
    (property "Value" "" (id 1) (at 91.44 58.42 0))
    (property "Footprint" "" (id 2) (at 91.44 62.23 0)
      (effects (font (size 1.27 1.27)) hide)
    )
    (property "Datasheet" "~" (id 3) (at 91.44 62.23 0)
      (effects (font (size 1.27 1.27)) hide)
    )
    (pin "1" (uuid 576c0b41-120f-41ba-a905-9d090247ea96))
    (pin "2" (uuid 5bdfc72a-c10f-40ac-a4b4-52781b221ecf))
  )

  (symbol (lib_id "power:GND") (at 97.79 64.77 0) (unit 1)
    (in_bom yes) (on_board yes)
    (uuid 00000000-0000-0000-0000-00005d67f99a)
    (property "Reference" "#PWR0111" (id 0) (at 97.79 71.12 0)
      (effects (font (size 1.27 1.27)) hide)
    )
    (property "Value" "" (id 1) (at 97.917 69.1642 0))
    (property "Footprint" "" (id 2) (at 97.79 64.77 0)
      (effects (font (size 1.27 1.27)) hide)
    )
    (property "Datasheet" "" (id 3) (at 97.79 64.77 0)
      (effects (font (size 1.27 1.27)) hide)
    )
    (pin "1" (uuid e9f2dcf1-6e9d-4d4e-a590-05cd50d9f21b))
  )

  (symbol (lib_id "Device:R") (at 83.82 62.23 270) (unit 1)
    (in_bom yes) (on_board yes)
    (uuid 00000000-0000-0000-0000-00005d6827f4)
    (property "Reference" "R1" (id 0) (at 84.455 62.23 90))
    (property "Value" "" (id 1) (at 83.82 60.325 90))
    (property "Footprint" "" (id 2) (at 83.82 60.452 90)
      (effects (font (size 1.27 1.27)) hide)
    )
    (property "Datasheet" "~" (id 3) (at 83.82 62.23 0)
      (effects (font (size 1.27 1.27)) hide)
    )
    (pin "1" (uuid fed04791-33ad-4aea-9b6e-7c1c8439f2e1))
    (pin "2" (uuid 10f5e799-7f7b-49dc-955a-bf7f8dd545d5))
  )

  (symbol (lib_id "power:GND") (at 64.77 45.72 0) (unit 1)
    (in_bom yes) (on_board yes)
    (uuid 00000000-0000-0000-0000-00005d68b8db)
    (property "Reference" "#PWR0103" (id 0) (at 64.77 52.07 0)
      (effects (font (size 1.27 1.27)) hide)
    )
    (property "Value" "" (id 1) (at 64.897 50.1142 0))
    (property "Footprint" "" (id 2) (at 64.77 45.72 0)
      (effects (font (size 1.27 1.27)) hide)
    )
    (property "Datasheet" "" (id 3) (at 64.77 45.72 0)
      (effects (font (size 1.27 1.27)) hide)
    )
    (pin "1" (uuid 1b30d906-2992-4229-99b0-779424dfbb66))
  )

  (symbol (lib_id "Connector:Conn_01x08_Male") (at 80.01 83.82 0) (unit 1)
    (in_bom yes) (on_board yes)
    (uuid 00000000-0000-0000-0000-00005d68dc89)
    (property "Reference" "J1" (id 0) (at 86.36 72.39 0)
      (effects (font (size 1.27 1.27)) (justify right))
    )
    (property "Value" "" (id 1) (at 79.2988 84.5058 0)
      (effects (font (size 1.27 1.27)) (justify right) hide)
    )
    (property "Footprint" "" (id 2) (at 80.01 83.82 0)
      (effects (font (size 1.27 1.27)) hide)
    )
    (property "Datasheet" "~" (id 3) (at 80.01 83.82 0)
      (effects (font (size 1.27 1.27)) hide)
    )
    (pin "1" (uuid e614a1e3-796c-4787-b475-93ec371d8f91))
    (pin "2" (uuid 13b37d21-cc2c-4077-8942-76223a051c5b))
    (pin "3" (uuid f46a849c-98e4-4004-9ccc-2120624de598))
    (pin "4" (uuid e6e0c7d9-b60e-428e-98c9-4f7b34f60388))
    (pin "5" (uuid 18775207-2e19-4046-9652-0a609e0f1f5d))
    (pin "6" (uuid 9f32e7e1-51fa-43cf-bcf6-d745ef4c26b0))
    (pin "7" (uuid f797c40c-9523-4be3-8876-0670db5af29b))
    (pin "8" (uuid 127d9ee2-01d1-498f-ae61-5e2a7396948b))
  )

  (symbol (lib_id "Device:C") (at 27.94 46.99 0) (unit 1)
    (in_bom yes) (on_board yes)
    (uuid 00000000-0000-0000-0000-00005d694e97)
    (property "Reference" "C2" (id 0) (at 21.59 45.72 0)
      (effects (font (size 1.27 1.27)) (justify left))
    )
    (property "Value" "" (id 1) (at 20.32 48.26 0)
      (effects (font (size 1.27 1.27)) (justify left))
    )
    (property "Footprint" "" (id 2) (at 28.9052 50.8 0)
      (effects (font (size 1.27 1.27)) hide)
    )
    (property "Datasheet" "~" (id 3) (at 27.94 46.99 0)
      (effects (font (size 1.27 1.27)) hide)
    )
    (pin "1" (uuid 46d673fa-7d14-485b-bda3-226d8f11fd24))
    (pin "2" (uuid 0c2c8e0c-d234-436d-a495-a5bc990ba6c6))
  )

  (symbol (lib_id "power:GND") (at 27.94 50.8 0) (unit 1)
    (in_bom yes) (on_board yes)
    (uuid 00000000-0000-0000-0000-00005d6953b6)
    (property "Reference" "#PWR0112" (id 0) (at 27.94 57.15 0)
      (effects (font (size 1.27 1.27)) hide)
    )
    (property "Value" "" (id 1) (at 28.067 55.1942 0))
    (property "Footprint" "" (id 2) (at 27.94 50.8 0)
      (effects (font (size 1.27 1.27)) hide)
    )
    (property "Datasheet" "" (id 3) (at 27.94 50.8 0)
      (effects (font (size 1.27 1.27)) hide)
    )
    (pin "1" (uuid bb72a5de-a4d7-4bcd-809f-713c952ea92c))
  )

  (symbol (lib_id "Device:C") (at 27.94 82.55 0) (unit 1)
    (in_bom yes) (on_board yes)
    (uuid 00000000-0000-0000-0000-00005d696543)
    (property "Reference" "C1" (id 0) (at 21.59 81.28 0)
      (effects (font (size 1.27 1.27)) (justify left))
    )
    (property "Value" "" (id 1) (at 20.32 83.82 0)
      (effects (font (size 1.27 1.27)) (justify left))
    )
    (property "Footprint" "" (id 2) (at 28.9052 86.36 0)
      (effects (font (size 1.27 1.27)) hide)
    )
    (property "Datasheet" "~" (id 3) (at 27.94 82.55 0)
      (effects (font (size 1.27 1.27)) hide)
    )
    (pin "1" (uuid d93f8d48-725f-4bd1-af51-62e6ca366789))
    (pin "2" (uuid 46a94e09-310a-4d7f-bd58-f90b8a0b81d3))
  )

  (symbol (lib_id "power:GND") (at 27.94 86.36 0) (unit 1)
    (in_bom yes) (on_board yes)
    (uuid 00000000-0000-0000-0000-00005d696b3a)
    (property "Reference" "#PWR0113" (id 0) (at 27.94 92.71 0)
      (effects (font (size 1.27 1.27)) hide)
    )
    (property "Value" "" (id 1) (at 28.067 90.7542 0))
    (property "Footprint" "" (id 2) (at 27.94 86.36 0)
      (effects (font (size 1.27 1.27)) hide)
    )
    (property "Datasheet" "" (id 3) (at 27.94 86.36 0)
      (effects (font (size 1.27 1.27)) hide)
    )
    (pin "1" (uuid dc597b10-1e93-4a25-8b88-e3ec826365d0))
  )

  (symbol (lib_id "Device:Antenna") (at 38.1 25.4 0) (unit 1)
    (in_bom yes) (on_board yes)
    (uuid 00000000-0000-0000-0000-00005d699dfd)
    (property "Reference" "ANT1" (id 0) (at 40.132 25.6794 0)
      (effects (font (size 1.27 1.27)) (justify left))
    )
    (property "Value" "" (id 1) (at 40.132 27.9908 0)
      (effects (font (size 1.27 1.27)) (justify left))
    )
    (property "Footprint" "" (id 2) (at 38.1 25.4 0)
      (effects (font (size 1.27 1.27)) hide)
    )
    (property "Datasheet" "~" (id 3) (at 38.1 25.4 0)
      (effects (font (size 1.27 1.27)) hide)
    )
    (pin "1" (uuid af1dbe09-4766-4067-93b1-6a2faaf1c07a))
  )

  (symbol (lib_id "Connector_Generic:Conn_02x03_Odd_Even") (at 86.36 111.76 0) (unit 1)
    (in_bom yes) (on_board yes)
    (uuid 00000000-0000-0000-0000-00005d69c5bf)
    (property "Reference" "PRG1" (id 0) (at 87.63 105.41 0))
    (property "Value" "" (id 1) (at 87.63 106.0196 0)
      (effects (font (size 1.27 1.27)) hide)
    )
    (property "Footprint" "" (id 2) (at 86.36 111.76 0)
      (effects (font (size 1.27 1.27)) hide)
    )
    (property "Datasheet" "~" (id 3) (at 86.36 111.76 0)
      (effects (font (size 1.27 1.27)) hide)
    )
    (pin "1" (uuid 80685d35-4019-41b9-84d2-5b21b3b2d17b))
    (pin "2" (uuid 6f909c78-c647-431b-b2b7-57f9c0c2406e))
    (pin "3" (uuid 905392a4-9fd2-4527-bebd-fe46e147c244))
    (pin "4" (uuid 7423b3cc-e15e-4308-94d5-09dab905d6e5))
    (pin "5" (uuid de1afcb4-cf76-4070-a66f-234dc09c531c))
    (pin "6" (uuid 92bbd6c0-68c6-44d0-b1fd-ce254054ada1))
  )

  (symbol (lib_id "power:GND") (at 96.52 116.84 0) (unit 1)
    (in_bom yes) (on_board yes)
    (uuid 00000000-0000-0000-0000-00005d6a5353)
    (property "Reference" "#PWR0104" (id 0) (at 96.52 123.19 0)
      (effects (font (size 1.27 1.27)) hide)
    )
    (property "Value" "" (id 1) (at 96.647 121.2342 0))
    (property "Footprint" "" (id 2) (at 96.52 116.84 0)
      (effects (font (size 1.27 1.27)) hide)
    )
    (property "Datasheet" "" (id 3) (at 96.52 116.84 0)
      (effects (font (size 1.27 1.27)) hide)
    )
    (pin "1" (uuid a0b7788d-041d-41a6-8c60-df9897345e9c))
  )

  (symbol (lib_id "Device:Battery_Cell") (at 82.55 39.37 0) (unit 1)
    (in_bom yes) (on_board yes)
    (uuid 00000000-0000-0000-0000-00005d6f40ee)
    (property "Reference" "BAT1" (id 0) (at 85.5472 36.9316 0)
      (effects (font (size 1.27 1.27)) (justify left))
    )
    (property "Value" "" (id 1) (at 85.5472 39.243 0)
      (effects (font (size 1.27 1.27)) (justify left) hide)
    )
    (property "Footprint" "" (id 2) (at 82.55 37.846 90)
      (effects (font (size 1.27 1.27)) hide)
    )
    (property "Datasheet" "~" (id 3) (at 82.55 37.846 90)
      (effects (font (size 1.27 1.27)) hide)
    )
    (pin "1" (uuid 0db40f29-2f12-4397-beb7-8d8016aa3d5a))
    (pin "2" (uuid 630fe7cd-de7d-4f2e-be04-997ed5b2a502))
  )

  (symbol (lib_id "power:GND") (at 82.55 41.91 0) (unit 1)
    (in_bom yes) (on_board yes)
    (uuid 00000000-0000-0000-0000-00005d6f5f48)
    (property "Reference" "#PWR0102" (id 0) (at 82.55 48.26 0)
      (effects (font (size 1.27 1.27)) hide)
    )
    (property "Value" "" (id 1) (at 82.677 46.3042 0))
    (property "Footprint" "" (id 2) (at 82.55 41.91 0)
      (effects (font (size 1.27 1.27)) hide)
    )
    (property "Datasheet" "" (id 3) (at 82.55 41.91 0)
      (effects (font (size 1.27 1.27)) hide)
    )
    (pin "1" (uuid eca7ec01-a311-465d-8ae1-38d5142f1f63))
  )

  (symbol (lib_id "power:+3V3") (at 82.55 34.29 0) (unit 1)
    (in_bom yes) (on_board yes)
    (uuid 00000000-0000-0000-0000-00005d6f66aa)
    (property "Reference" "#PWR0105" (id 0) (at 82.55 38.1 0)
      (effects (font (size 1.27 1.27)) hide)
    )
    (property "Value" "" (id 1) (at 82.931 29.8958 0))
    (property "Footprint" "" (id 2) (at 82.55 34.29 0)
      (effects (font (size 1.27 1.27)) hide)
    )
    (property "Datasheet" "" (id 3) (at 82.55 34.29 0)
      (effects (font (size 1.27 1.27)) hide)
    )
    (pin "1" (uuid 649c6f87-9e97-445b-b5f3-35aaa1c72e1f))
  )

  (symbol (lib_id "power:+3V3") (at 27.94 39.37 0) (unit 1)
    (in_bom yes) (on_board yes)
    (uuid 00000000-0000-0000-0000-00005d6f6b97)
    (property "Reference" "#PWR0106" (id 0) (at 27.94 43.18 0)
      (effects (font (size 1.27 1.27)) hide)
    )
    (property "Value" "" (id 1) (at 28.321 34.9758 0))
    (property "Footprint" "" (id 2) (at 27.94 39.37 0)
      (effects (font (size 1.27 1.27)) hide)
    )
    (property "Datasheet" "" (id 3) (at 27.94 39.37 0)
      (effects (font (size 1.27 1.27)) hide)
    )
    (pin "1" (uuid 043f7163-bb0e-4e7b-aa97-7b49aaa2d718))
  )

  (symbol (lib_id "power:+3V3") (at 48.26 74.93 0) (unit 1)
    (in_bom yes) (on_board yes)
    (uuid 00000000-0000-0000-0000-00005d6f753f)
    (property "Reference" "#PWR0107" (id 0) (at 48.26 78.74 0)
      (effects (font (size 1.27 1.27)) hide)
    )
    (property "Value" "" (id 1) (at 48.641 70.5358 0))
    (property "Footprint" "" (id 2) (at 48.26 74.93 0)
      (effects (font (size 1.27 1.27)) hide)
    )
    (property "Datasheet" "" (id 3) (at 48.26 74.93 0)
      (effects (font (size 1.27 1.27)) hide)
    )
    (pin "1" (uuid 84bb3528-041f-4aa4-ab8f-0d9c6e48fd42))
  )

  (symbol (lib_id "power:+3V3") (at 96.52 107.95 0) (unit 1)
    (in_bom yes) (on_board yes)
    (uuid 00000000-0000-0000-0000-00005d6f7ee7)
    (property "Reference" "#PWR0108" (id 0) (at 96.52 111.76 0)
      (effects (font (size 1.27 1.27)) hide)
    )
    (property "Value" "" (id 1) (at 96.901 103.5558 0))
    (property "Footprint" "" (id 2) (at 96.52 107.95 0)
      (effects (font (size 1.27 1.27)) hide)
    )
    (property "Datasheet" "" (id 3) (at 96.52 107.95 0)
      (effects (font (size 1.27 1.27)) hide)
    )
    (pin "1" (uuid 746681c1-690d-4a78-b726-509a2338a254))
  )

  (symbol (lib_id "power:+3V3") (at 92.71 74.93 0) (unit 1)
    (in_bom yes) (on_board yes)
    (uuid 00000000-0000-0000-0000-00005d6fb5f9)
    (property "Reference" "#PWR0109" (id 0) (at 92.71 78.74 0)
      (effects (font (size 1.27 1.27)) hide)
    )
    (property "Value" "" (id 1) (at 92.71 71.12 0))
    (property "Footprint" "" (id 2) (at 92.71 74.93 0)
      (effects (font (size 1.27 1.27)) hide)
    )
    (property "Datasheet" "" (id 3) (at 92.71 74.93 0)
      (effects (font (size 1.27 1.27)) hide)
    )
    (pin "1" (uuid 7765c7b0-cb77-48f8-a3d2-40d72f7db9cc))
  )

  (symbol (lib_id "power:GND") (at 87.63 78.105 0) (unit 1)
    (in_bom yes) (on_board yes)
    (uuid 00000000-0000-0000-0000-00005d6fc140)
    (property "Reference" "#PWR0110" (id 0) (at 87.63 84.455 0)
      (effects (font (size 1.27 1.27)) hide)
    )
    (property "Value" "" (id 1) (at 90.17 78.105 0))
    (property "Footprint" "" (id 2) (at 87.63 78.105 0)
      (effects (font (size 1.27 1.27)) hide)
    )
    (property "Datasheet" "" (id 3) (at 87.63 78.105 0)
      (effects (font (size 1.27 1.27)) hide)
    )
    (pin "1" (uuid 86bdc234-e7e2-438b-990c-cc9d1524672e))
  )

  (symbol (lib_id "Device:R") (at 24.13 40.64 90) (unit 1)
    (in_bom yes) (on_board yes)
    (uuid 00000000-0000-0000-0000-00005e0cabaf)
    (property "Reference" "R2" (id 0) (at 24.13 40.64 90))
    (property "Value" "" (id 1) (at 24.13 38.1 90))
    (property "Footprint" "" (id 2) (at 24.13 42.418 90)
      (effects (font (size 1.27 1.27)) hide)
    )
    (property "Datasheet" "~" (id 3) (at 24.13 40.64 0)
      (effects (font (size 1.27 1.27)) hide)
    )
    (pin "1" (uuid 0570f51b-f435-4115-b377-e4b597e4680a))
    (pin "2" (uuid cccfb26b-6de0-4db5-bc0b-a84cae00e477))
  )

  (symbol (lib_id "Sensor:BME280") (at 135.89 48.26 0) (mirror y) (unit 1)
    (in_bom yes) (on_board yes)
    (uuid 00000000-0000-0000-0000-000061803dd5)
    (property "Reference" "U1" (id 0) (at 146.812 47.0916 0)
      (effects (font (size 1.27 1.27)) (justify right))
    )
    (property "Value" "" (id 1) (at 146.812 49.403 0)
      (effects (font (size 1.27 1.27)) (justify right))
    )
    (property "Footprint" "" (id 2) (at 97.79 59.69 0)
      (effects (font (size 1.27 1.27)) hide)
    )
    (property "Datasheet" "https://ae-bst.resource.bosch.com/media/_tech/media/datasheets/BST-BME280-DS002.pdf" (id 3) (at 135.89 53.34 0)
      (effects (font (size 1.27 1.27)) hide)
    )
    (pin "1" (uuid 0ebdb4fe-fc36-4c61-9b8f-70f0193e3de3))
    (pin "2" (uuid 171e26d5-79d6-42e8-a94e-bf5c00390d1d))
    (pin "3" (uuid c1da895c-cef7-4def-9708-14d91abc9f42))
    (pin "4" (uuid 522c2f33-eb95-4057-9f3c-dd7831509fbc))
    (pin "5" (uuid 2468d347-e9c8-4ee7-bbd6-f15dd6942cd6))
    (pin "6" (uuid 26e7ba0d-04aa-49ee-903e-057cd263faed))
    (pin "7" (uuid 389a4c98-b247-4662-ab1b-1f7905be598b))
    (pin "8" (uuid e10ddda6-574b-489c-960a-c3111b8c9eda))
  )

  (symbol (lib_id "Sensor:BME680") (at 135.89 94.615 0) (mirror y) (unit 1)
    (in_bom yes) (on_board yes)
    (uuid 00000000-0000-0000-0000-0000618045a5)
    (property "Reference" "U2" (id 0) (at 146.812 93.4466 0)
      (effects (font (size 1.27 1.27)) (justify right))
    )
    (property "Value" "" (id 1) (at 146.812 95.758 0)
      (effects (font (size 1.27 1.27)) (justify right))
    )
    (property "Footprint" "" (id 2) (at 99.06 106.045 0)
      (effects (font (size 1.27 1.27)) hide)
    )
    (property "Datasheet" "https://ae-bst.resource.bosch.com/media/_tech/media/datasheets/BST-BME680-DS001.pdf" (id 3) (at 135.89 99.695 0)
      (effects (font (size 1.27 1.27)) hide)
    )
    (pin "1" (uuid 5753db86-fa61-4b79-8bd9-e28a2e082c47))
    (pin "2" (uuid 6c67f2e6-0fe0-42f2-a1fe-35eb57917b56))
    (pin "3" (uuid 03435720-4cc1-4bc9-a435-2722da8925c8))
    (pin "4" (uuid d3925acb-f9f6-4a5a-9949-4eac3bd178ea))
    (pin "5" (uuid c3c3bfe7-2269-4112-9a24-81b5b0cf2718))
    (pin "6" (uuid 69f0170a-0889-4e06-82b6-6982b4e3b4f6))
    (pin "7" (uuid 11b85eea-dc35-46a9-96f1-4b1e7636e86a))
    (pin "8" (uuid 96c3abe5-57f0-4f48-84a3-5ca5dfa125dc))
  )

  (symbol (lib_id "power:+3V3") (at 135.89 31.75 0) (unit 1)
    (in_bom yes) (on_board yes)
    (uuid 00000000-0000-0000-0000-000061806d12)
    (property "Reference" "#PWR01" (id 0) (at 135.89 35.56 0)
      (effects (font (size 1.27 1.27)) hide)
    )
    (property "Value" "" (id 1) (at 136.271 27.3558 0))
    (property "Footprint" "" (id 2) (at 135.89 31.75 0)
      (effects (font (size 1.27 1.27)) hide)
    )
    (property "Datasheet" "" (id 3) (at 135.89 31.75 0)
      (effects (font (size 1.27 1.27)) hide)
    )
    (pin "1" (uuid c8251b44-bff7-440a-ba89-55eabc2e21f9))
  )

  (symbol (lib_id "power:GND") (at 135.89 64.77 0) (unit 1)
    (in_bom yes) (on_board yes)
    (uuid 00000000-0000-0000-0000-0000618074be)
    (property "Reference" "#PWR05" (id 0) (at 135.89 71.12 0)
      (effects (font (size 1.27 1.27)) hide)
    )
    (property "Value" "" (id 1) (at 136.017 69.1642 0))
    (property "Footprint" "" (id 2) (at 135.89 64.77 0)
      (effects (font (size 1.27 1.27)) hide)
    )
    (property "Datasheet" "" (id 3) (at 135.89 64.77 0)
      (effects (font (size 1.27 1.27)) hide)
    )
    (pin "1" (uuid 0087d6f7-ea61-4a08-aeaa-494250451966))
  )

  (symbol (lib_id "Device:C") (at 150.495 36.83 0) (mirror y) (unit 1)
    (in_bom yes) (on_board yes)
    (uuid 00000000-0000-0000-0000-00006180acc9)
    (property "Reference" "C3" (id 0) (at 156.845 35.56 0)
      (effects (font (size 1.27 1.27)) (justify left))
    )
    (property "Value" "" (id 1) (at 158.115 38.1 0)
      (effects (font (size 1.27 1.27)) (justify left))
    )
    (property "Footprint" "" (id 2) (at 149.5298 40.64 0)
      (effects (font (size 1.27 1.27)) hide)
    )
    (property "Datasheet" "~" (id 3) (at 150.495 36.83 0)
      (effects (font (size 1.27 1.27)) hide)
    )
    (pin "1" (uuid 18388435-895b-413b-8c09-a6a8f798fbe2))
    (pin "2" (uuid cd8a9b18-7fa0-4da3-8b96-20e7c1cbf16b))
  )

  (symbol (lib_id "power:GND") (at 150.495 42.545 0) (unit 1)
    (in_bom yes) (on_board yes)
    (uuid 00000000-0000-0000-0000-00006180b4b0)
    (property "Reference" "#PWR03" (id 0) (at 150.495 48.895 0)
      (effects (font (size 1.27 1.27)) hide)
    )
    (property "Value" "" (id 1) (at 153.67 42.545 0))
    (property "Footprint" "" (id 2) (at 150.495 42.545 0)
      (effects (font (size 1.27 1.27)) hide)
    )
    (property "Datasheet" "" (id 3) (at 150.495 42.545 0)
      (effects (font (size 1.27 1.27)) hide)
    )
    (pin "1" (uuid 19e574ea-0177-4221-be45-2d7a3f83ade6))
  )

  (symbol (lib_id "Device:R") (at 96.52 80.01 0) (unit 1)
    (in_bom yes) (on_board yes)
    (uuid 00000000-0000-0000-0000-00006180cf62)
    (property "Reference" "R3" (id 0) (at 96.52 80.01 90))
    (property "Value" "" (id 1) (at 99.06 80.01 90))
    (property "Footprint" "" (id 2) (at 94.742 80.01 90)
      (effects (font (size 1.27 1.27)) hide)
    )
    (property "Datasheet" "~" (id 3) (at 96.52 80.01 0)
      (effects (font (size 1.27 1.27)) hide)
    )
    (pin "1" (uuid 13f8f043-2ef5-44c2-a537-7001496348f6))
    (pin "2" (uuid 13d8277c-55e8-43d8-8d4e-a2f396466437))
  )

  (symbol (lib_id "Device:R") (at 101.6 80.01 0) (unit 1)
    (in_bom yes) (on_board yes)
    (uuid 00000000-0000-0000-0000-00006180e82a)
    (property "Reference" "R4" (id 0) (at 101.6 80.01 90))
    (property "Value" "" (id 1) (at 104.14 80.01 90))
    (property "Footprint" "" (id 2) (at 99.822 80.01 90)
      (effects (font (size 1.27 1.27)) hide)
    )
    (property "Datasheet" "~" (id 3) (at 101.6 80.01 0)
      (effects (font (size 1.27 1.27)) hide)
    )
    (pin "1" (uuid 42bf9880-3dea-4d00-81a9-64231cc325ad))
    (pin "2" (uuid f5d5bd4a-108f-418f-8859-779e2f50ba63))
  )

  (symbol (lib_id "power:+3V3") (at 119.38 55.88 0) (unit 1)
    (in_bom yes) (on_board yes)
    (uuid 00000000-0000-0000-0000-000061819aa9)
    (property "Reference" "#PWR04" (id 0) (at 119.38 59.69 0)
      (effects (font (size 1.27 1.27)) hide)
    )
    (property "Value" "" (id 1) (at 115.57 54.61 0))
    (property "Footprint" "" (id 2) (at 119.38 55.88 0)
      (effects (font (size 1.27 1.27)) hide)
    )
    (property "Datasheet" "" (id 3) (at 119.38 55.88 0)
      (effects (font (size 1.27 1.27)) hide)
    )
    (pin "1" (uuid c2ef612c-2c87-415e-8c56-59340bc4a17f))
  )

  (symbol (lib_id "power:GND") (at 119.38 40.64 0) (unit 1)
    (in_bom yes) (on_board yes)
    (uuid 00000000-0000-0000-0000-00006181a333)
    (property "Reference" "#PWR02" (id 0) (at 119.38 46.99 0)
      (effects (font (size 1.27 1.27)) hide)
    )
    (property "Value" "" (id 1) (at 116.205 40.64 0))
    (property "Footprint" "" (id 2) (at 119.38 40.64 0)
      (effects (font (size 1.27 1.27)) hide)
    )
    (property "Datasheet" "" (id 3) (at 119.38 40.64 0)
      (effects (font (size 1.27 1.27)) hide)
    )
    (pin "1" (uuid efb99b3a-e8c7-4477-a91e-f0afd1f60b07))
  )

  (symbol (lib_id "power:+3V3") (at 135.89 78.105 0) (unit 1)
    (in_bom yes) (on_board yes)
    (uuid 00000000-0000-0000-0000-00006182600a)
    (property "Reference" "#PWR06" (id 0) (at 135.89 81.915 0)
      (effects (font (size 1.27 1.27)) hide)
    )
    (property "Value" "" (id 1) (at 136.271 73.7108 0))
    (property "Footprint" "" (id 2) (at 135.89 78.105 0)
      (effects (font (size 1.27 1.27)) hide)
    )
    (property "Datasheet" "" (id 3) (at 135.89 78.105 0)
      (effects (font (size 1.27 1.27)) hide)
    )
    (pin "1" (uuid 3850cbbe-110d-4ccf-a5cc-a8deeb1584a5))
  )

  (symbol (lib_id "power:GND") (at 135.89 111.125 0) (unit 1)
    (in_bom yes) (on_board yes)
    (uuid 00000000-0000-0000-0000-000061826014)
    (property "Reference" "#PWR09" (id 0) (at 135.89 117.475 0)
      (effects (font (size 1.27 1.27)) hide)
    )
    (property "Value" "" (id 1) (at 136.017 115.5192 0))
    (property "Footprint" "" (id 2) (at 135.89 111.125 0)
      (effects (font (size 1.27 1.27)) hide)
    )
    (property "Datasheet" "" (id 3) (at 135.89 111.125 0)
      (effects (font (size 1.27 1.27)) hide)
    )
    (pin "1" (uuid b52a3d17-7fad-4dd0-ba43-f795c2c1ea1a))
  )

  (symbol (lib_id "power:+3V3") (at 119.38 102.235 0) (unit 1)
    (in_bom yes) (on_board yes)
    (uuid 00000000-0000-0000-0000-000061826034)
    (property "Reference" "#PWR08" (id 0) (at 119.38 106.045 0)
      (effects (font (size 1.27 1.27)) hide)
    )
    (property "Value" "" (id 1) (at 115.57 100.965 0))
    (property "Footprint" "" (id 2) (at 119.38 102.235 0)
      (effects (font (size 1.27 1.27)) hide)
    )
    (property "Datasheet" "" (id 3) (at 119.38 102.235 0)
      (effects (font (size 1.27 1.27)) hide)
    )
    (pin "1" (uuid fb59f76f-4be2-4333-a5c9-5d2d196b2e46))
  )

  (symbol (lib_id "power:GND") (at 119.38 86.995 0) (unit 1)
    (in_bom yes) (on_board yes)
    (uuid 00000000-0000-0000-0000-00006182603e)
    (property "Reference" "#PWR07" (id 0) (at 119.38 93.345 0)
      (effects (font (size 1.27 1.27)) hide)
    )
    (property "Value" "" (id 1) (at 116.205 86.995 0))
    (property "Footprint" "" (id 2) (at 119.38 86.995 0)
      (effects (font (size 1.27 1.27)) hide)
    )
    (property "Datasheet" "" (id 3) (at 119.38 86.995 0)
      (effects (font (size 1.27 1.27)) hide)
    )
    (pin "1" (uuid 23f0d7a1-2877-409b-8327-307d28b7bf57))
  )

  (sheet_instances
    (path "/" (page "1"))
  )

  (symbol_instances
    (path "/00000000-0000-0000-0000-000061806d12"
      (reference "#PWR01") (unit 1) (value "+3V3") (footprint "")
    )
    (path "/00000000-0000-0000-0000-00006181a333"
      (reference "#PWR02") (unit 1) (value "GND") (footprint "")
    )
    (path "/00000000-0000-0000-0000-00006180b4b0"
      (reference "#PWR03") (unit 1) (value "GND") (footprint "")
    )
    (path "/00000000-0000-0000-0000-000061819aa9"
      (reference "#PWR04") (unit 1) (value "+3V3") (footprint "")
    )
    (path "/00000000-0000-0000-0000-0000618074be"
      (reference "#PWR05") (unit 1) (value "GND") (footprint "")
    )
    (path "/00000000-0000-0000-0000-00006182600a"
      (reference "#PWR06") (unit 1) (value "+3V3") (footprint "")
    )
    (path "/00000000-0000-0000-0000-00006182603e"
      (reference "#PWR07") (unit 1) (value "GND") (footprint "")
    )
    (path "/00000000-0000-0000-0000-000061826034"
      (reference "#PWR08") (unit 1) (value "+3V3") (footprint "")
    )
    (path "/00000000-0000-0000-0000-000061826014"
      (reference "#PWR09") (unit 1) (value "GND") (footprint "")
    )
    (path "/00000000-0000-0000-0000-00005d662e21"
      (reference "#PWR0101") (unit 1) (value "GND") (footprint "")
    )
    (path "/00000000-0000-0000-0000-00005d6f5f48"
      (reference "#PWR0102") (unit 1) (value "GND") (footprint "")
    )
    (path "/00000000-0000-0000-0000-00005d68b8db"
      (reference "#PWR0103") (unit 1) (value "GND") (footprint "")
    )
    (path "/00000000-0000-0000-0000-00005d6a5353"
      (reference "#PWR0104") (unit 1) (value "GND") (footprint "")
    )
    (path "/00000000-0000-0000-0000-00005d6f66aa"
      (reference "#PWR0105") (unit 1) (value "+3V3") (footprint "")
    )
    (path "/00000000-0000-0000-0000-00005d6f6b97"
      (reference "#PWR0106") (unit 1) (value "+3V3") (footprint "")
    )
    (path "/00000000-0000-0000-0000-00005d6f753f"
      (reference "#PWR0107") (unit 1) (value "+3V3") (footprint "")
    )
    (path "/00000000-0000-0000-0000-00005d6f7ee7"
      (reference "#PWR0108") (unit 1) (value "+3V3") (footprint "")
    )
    (path "/00000000-0000-0000-0000-00005d6fb5f9"
      (reference "#PWR0109") (unit 1) (value "+3V3") (footprint "")
    )
    (path "/00000000-0000-0000-0000-00005d6fc140"
      (reference "#PWR0110") (unit 1) (value "GND") (footprint "")
    )
    (path "/00000000-0000-0000-0000-00005d67f99a"
      (reference "#PWR0111") (unit 1) (value "GND") (footprint "")
    )
    (path "/00000000-0000-0000-0000-00005d6953b6"
      (reference "#PWR0112") (unit 1) (value "GND") (footprint "")
    )
    (path "/00000000-0000-0000-0000-00005d696b3a"
      (reference "#PWR0113") (unit 1) (value "GND") (footprint "")
    )
    (path "/00000000-0000-0000-0000-00005d699dfd"
      (reference "ANT1") (unit 1) (value "Antenna") (footprint "SMA_Multi:SMA_Edge_UFL_Combo")
    )
    (path "/00000000-0000-0000-0000-00005d66342e"
      (reference "ATTiny84") (unit 1) (value "ATtiny84A-SSU") (footprint "Package_SO:SOIC-14_3.9x8.7mm_P1.27mm")
    )
    (path "/00000000-0000-0000-0000-00005d6f40ee"
      (reference "BAT1") (unit 1) (value "Battery_Cell") (footprint "battery_holder:BatteryHolder_Keystone_1060_1x2032_Long_Pad")
    )
    (path "/00000000-0000-0000-0000-00005d696543"
      (reference "C1") (unit 1) (value "100n") (footprint "Capacitor_SMD:C_0805_2012Metric_Pad1.18x1.45mm_HandSolder")
    )
    (path "/00000000-0000-0000-0000-00005d694e97"
      (reference "C2") (unit 1) (value "100n") (footprint "Capacitor_SMD:C_0805_2012Metric_Pad1.18x1.45mm_HandSolder")
    )
    (path "/00000000-0000-0000-0000-00006180acc9"
      (reference "C3") (unit 1) (value "100n") (footprint "Capacitor_SMD:C_0805_2012Metric_Pad1.18x1.45mm_HandSolder")
    )
    (path "/00000000-0000-0000-0000-00005d67f14d"
      (reference "D1") (unit 1) (value "LED") (footprint "LED_SMD:LED_0805_2012Metric_Pad1.15x1.40mm_HandSolder")
    )
    (path "/00000000-0000-0000-0000-00005d68dc89"
      (reference "J1") (unit 1) (value "J1") (footprint "Connector_PinHeader_2.54mm:PinHeader_1x08_P2.54mm_Vertical")
    )
    (path "/00000000-0000-0000-0000-00005d69c5bf"
      (reference "PRG1") (unit 1) (value "PRG") (footprint "Connector_PinHeader_2.54mm:PinHeader_2x03_P2.54mm_Vertical")
    )
    (path "/00000000-0000-0000-0000-00005d6827f4"
      (reference "R1") (unit 1) (value "100") (footprint "Resistor_SMD:R_0805_2012Metric_Pad1.20x1.40mm_HandSolder")
    )
    (path "/00000000-0000-0000-0000-00005e0cabaf"
      (reference "R2") (unit 1) (value "47K") (footprint "Resistor_SMD:R_0805_2012Metric_Pad1.20x1.40mm_HandSolder")
    )
    (path "/00000000-0000-0000-0000-00006180cf62"
      (reference "R3") (unit 1) (value "4.7K") (footprint "Resistor_SMD:R_0805_2012Metric_Pad1.20x1.40mm_HandSolder")
    )
    (path "/00000000-0000-0000-0000-00006180e82a"
      (reference "R4") (unit 1) (value "4.7K") (footprint "Resistor_SMD:R_0805_2012Metric_Pad1.20x1.40mm_HandSolder")
    )
    (path "/00000000-0000-0000-0000-00005d664943"
      (reference "RFM95") (unit 1) (value "RFM95W-868S2") (footprint "RFM:RFM95")
    )
    (path "/00000000-0000-0000-0000-000061803dd5"
      (reference "U1") (unit 1) (value "BME280") (footprint "Package_LGA:Bosch_LGA-8_2.5x2.5mm_P0.65mm_ClockwisePinNumbering")
    )
    (path "/00000000-0000-0000-0000-0000618045a5"
      (reference "U2") (unit 1) (value "BME680") (footprint "Package_LGA:Bosch_LGA-8_3x3mm_P0.8mm_ClockwisePinNumbering")
    )
  )
)
